20:52:50.360 -> ⸮PWM High duration (expected 1 second) = 1000308
20:52:52.375 -> PWM High duration (expected 1 second) = 1000312
20:52:54.390 -> PWM High duration (expected 1 second) = 1000308
20:52:56.358 -> PWM High duration (expected 1 second) = 1000312
20:52:58.374 -> PWM High duration (expected 1 second) = 1000308
20:53:00.389 -> PWM High duration (expected 1 second) = 1000308
20:53:02.357 -> PWM High duration (expected 1 second) = 1000312
20:53:04.372 -> PWM High duration (expected 1 second) = 1000312
20:53:06.387 -> PWM High duration (expected 1 second) = 1000308
20:53:08.356 -> PWM High duration (expected 1 second) = 1000308
20:53:10.371 -> PWM High duration (expected 1 second) = 1000316
20:53:12.386 -> PWM High duration (expected 1 second) = 1000316
20:53:14.354 -> PWM High duration (expected 1 second) = 1000308
20:53:16.369 -> PWM High duration (expected 1 second) = 1000312
20:53:18.385 -> PWM High duration (expected 1 second) = 1000308
20:53:20.400 -> PWM High duration (expected 1 second) = 1000316
20:53:22.368 -> PWM High duration (expected 1 second) = 1000308
20:53:24.383 -> PWM High duration (expected 1 second) = 1000312
20:53:26.398 -> PWM High duration (expected 1 second) = 1000308
20:53:28.367 -> PWM High duration (expected 1 second) = 1000308
20:53:30.382 -> PWM High duration (expected 1 second) = 1000316
20:53:32.397 -> PWM High duration (expected 1 second) = 1000312
20:53:34.365 -> PWM High duration (expected 1 second) = 1000312
20:53:36.380 -> PWM High duration (expected 1 second) = 1000312
20:53:38.396 -> PWM High duration (expected 1 second) = 1000308
20:53:40.364 -> PWM High duration (expected 1 second) = 1000308
20:53:42.379 -> PWM High duration (expected 1 second) = 1000312
20:53:44.394 -> PWM High duration (expected 1 second) = 1000312
20:53:46.362 -> PWM High duration (expected 1 second) = 1000312
20:53:48.378 -> PWM High duration (expected 1 second) = 1000308
20:53:50.393 -> PWM High duration (expected 1 second) = 1000312
20:53:52.361 -> PWM High duration (expected 1 second) = 1000312
20:53:54.376 -> PWM High duration (expected 1 second) = 1000312
20:53:56.391 -> PWM High duration (expected 1 second) = 1000308
20:53:58.360 -> PWM High duration (expected 1 second) = 1000312
20:54:00.375 -> PWM High duration (expected 1 second) = 1000308
20:54:02.390 -> PWM High duration (expected 1 second) = 1000312
20:54:04.358 -> PWM High duration (expected 1 second) = 1000316
20:54:06.373 -> PWM High duration (expected 1 second) = 1000312
20:54:08.388 -> PWM High duration (expected 1 second) = 1000312
20:54:10.357 -> PWM High duration (expected 1 second) = 1000312
20:54:12.372 -> PWM High duration (expected 1 second) = 1000308
20:54:14.387 -> PWM High duration (expected 1 second) = 1000312
20:54:16.355 -> PWM High duration (expected 1 second) = 1000312
20:54:18.370 -> PWM High duration (expected 1 second) = 1000312
20:54:20.385 -> PWM High duration (expected 1 second) = 1000312
20:54:22.354 -> PWM High duration (expected 1 second) = 1000312
20:54:24.369 -> PWM High duration (expected 1 second) = 1000316
20:54:26.384 -> PWM High duration (expected 1 second) = 1000312
20:54:28.352 -> PWM High duration (expected 1 second) = 1000316
20:54:30.367 -> PWM High duration (expected 1 second) = 1000312
20:54:32.383 -> PWM High duration (expected 1 second) = 1000312
20:54:34.398 -> PWM High duration (expected 1 second) = 1000308
20:54:36.366 -> PWM High duration (expected 1 second) = 1000312
20:54:38.381 -> PWM High duration (expected 1 second) = 1000308
20:54:40.396 -> PWM High duration (expected 1 second) = 1000312
20:54:42.365 -> PWM High duration (expected 1 second) = 1000312
20:54:44.380 -> PWM High duration (expected 1 second) = 1000316
20:54:46.395 -> PWM High duration (expected 1 second) = 1000312
20:54:48.379 -> PWM High duration (expected 1 second) = 1000316
20:54:50.358 -> PWM High duration (expected 1 second) = 1000316
20:54:52.373 -> PWM High duration (expected 1 second) = 1000316
20:54:54.386 -> PWM High duration (expected 1 second) = 1000308
20:54:56.387 -> PWM High duration (expected 1 second) = 1000312
20:54:58.385 -> PWM High duration (expected 1 second) = 1000308
20:55:00.387 -> PWM High duration (expected 1 second) = 1000312
20:55:02.353 -> PWM High duration (expected 1 second) = 1000316
20:55:04.364 -> PWM High duration (expected 1 second) = 1000312
20:55:06.381 -> PWM High duration (expected 1 second) = 1000312
20:55:08.383 -> PWM High duration (expected 1 second) = 1000316
20:55:10.353 -> PWM High duration (expected 1 second) = 1000316
20:55:12.368 -> PWM High duration (expected 1 second) = 1000312
20:55:14.384 -> PWM High duration (expected 1 second) = 1000312
20:55:16.352 -> PWM High duration (expected 1 second) = 1000312
20:55:18.367 -> PWM High duration (expected 1 second) = 1000312
20:55:20.370 -> PWM High duration (expected 1 second) = 1000312
20:55:22.385 -> PWM High duration (expected 1 second) = 1000316
20:55:24.354 -> PWM High duration (expected 1 second) = 1000312
20:55:26.369 -> PWM High duration (expected 1 second) = 1000312
20:55:28.384 -> PWM High duration (expected 1 second) = 1000316
20:55:30.352 -> PWM High duration (expected 1 second) = 1000312
20:55:32.367 -> PWM High duration (expected 1 second) = 1000312
20:55:34.383 -> PWM High duration (expected 1 second) = 1000312
20:55:36.351 -> PWM High duration (expected 1 second) = 1000312
20:55:38.366 -> PWM High duration (expected 1 second) = 1000316
20:55:40.381 -> PWM High duration (expected 1 second) = 1000312
20:55:42.396 -> PWM High duration (expected 1 second) = 1000312
20:55:44.365 -> PWM High duration (expected 1 second) = 1000312
20:55:46.380 -> PWM High duration (expected 1 second) = 1000312
20:55:48.395 -> PWM High duration (expected 1 second) = 1000312
20:55:50.363 -> PWM High duration (expected 1 second) = 1000308
20:55:52.378 -> PWM High duration (expected 1 second) = 1000312
20:55:54.394 -> PWM High duration (expected 1 second) = 1000312
20:55:56.362 -> PWM High duration (expected 1 second) = 1000312
20:55:58.377 -> PWM High duration (expected 1 second) = 1000316
20:56:00.392 -> PWM High duration (expected 1 second) = 1000312
20:56:02.360 -> PWM High duration (expected 1 second) = 1000312
20:56:04.376 -> PWM High duration (expected 1 second) = 1000304
20:56:06.391 -> PWM High duration (expected 1 second) = 1000312
20:56:08.359 -> PWM High duration (expected 1 second) = 1000316
20:56:10.374 -> PWM High duration (expected 1 second) = 1000312
20:56:12.389 -> PWM High duration (expected 1 second) = 1000316
20:56:14.358 -> PWM High duration (expected 1 second) = 1000312
20:56:16.373 -> PWM High duration (expected 1 second) = 1000316
20:56:18.388 -> PWM High duration (expected 1 second) = 1000312
20:56:20.356 -> PWM High duration (expected 1 second) = 1000312
20:56:22.371 -> PWM High duration (expected 1 second) = 1000316
20:56:24.386 -> PWM High duration (expected 1 second) = 1000316
20:56:26.355 -> PWM High duration (expected 1 second) = 1000312
20:56:28.370 -> PWM High duration (expected 1 second) = 1000312
20:56:30.385 -> PWM High duration (expected 1 second) = 1000312
20:56:32.353 -> PWM High duration (expected 1 second) = 1000316
20:56:34.368 -> PWM High duration (expected 1 second) = 1000312
20:56:36.384 -> PWM High duration (expected 1 second) = 1000312
20:56:38.352 -> PWM High duration (expected 1 second) = 1000316
20:56:40.367 -> PWM High duration (expected 1 second) = 1000312
20:56:42.382 -> PWM High duration (expected 1 second) = 1000312
20:56:44.350 -> PWM High duration (expected 1 second) = 1000316
20:56:46.365 -> PWM High duration (expected 1 second) = 1000312
20:56:48.381 -> PWM High duration (expected 1 second) = 1000312
20:56:50.396 -> PWM High duration (expected 1 second) = 1000312
20:56:52.364 -> PWM High duration (expected 1 second) = 1000312
20:56:54.379 -> PWM High duration (expected 1 second) = 1000316
20:56:56.394 -> PWM High duration (expected 1 second) = 1000308
20:56:58.363 -> PWM High duration (expected 1 second) = 1000312
20:57:00.378 -> PWM High duration (expected 1 second) = 1000312
20:57:02.393 -> PWM High duration (expected 1 second) = 1000308
20:57:04.361 -> PWM High duration (expected 1 second) = 1000312
20:57:06.376 -> PWM High duration (expected 1 second) = 1000308
20:57:08.392 -> PWM High duration (expected 1 second) = 1000316
20:57:10.360 -> PWM High duration (expected 1 second) = 1000312
20:57:12.375 -> PWM High duration (expected 1 second) = 1000312
20:57:14.359 -> PWM High duration (expected 1 second) = 1000312
20:57:16.374 -> PWM High duration (expected 1 second) = 1000308
20:57:18.389 -> PWM High duration (expected 1 second) = 1000312
20:57:20.358 -> PWM High duration (expected 1 second) = 1000312
20:57:22.373 -> PWM High duration (expected 1 second) = 1000312
20:57:24.388 -> PWM High duration (expected 1 second) = 1000316
20:57:26.356 -> PWM High duration (expected 1 second) = 1000312
20:57:28.371 -> PWM High duration (expected 1 second) = 1000312
20:57:30.386 -> PWM High duration (expected 1 second) = 1000312
20:57:32.355 -> PWM High duration (expected 1 second) = 1000308
20:57:34.370 -> PWM High duration (expected 1 second) = 1000312
20:57:36.385 -> PWM High duration (expected 1 second) = 1000316
20:57:38.353 -> PWM High duration (expected 1 second) = 1000312
20:57:40.368 -> PWM High duration (expected 1 second) = 1000312
20:57:42.384 -> PWM High duration (expected 1 second) = 1000312
20:57:44.352 -> PWM High duration (expected 1 second) = 1000312
20:57:46.367 -> PWM High duration (expected 1 second) = 1000312
20:57:48.382 -> PWM High duration (expected 1 second) = 1000316
20:57:50.350 -> PWM High duration (expected 1 second) = 1000320
20:57:52.366 -> PWM High duration (expected 1 second) = 1000316
20:57:54.381 -> PWM High duration (expected 1 second) = 1000316
20:57:56.349 -> PWM High duration (expected 1 second) = 1000312
20:57:58.364 -> PWM High duration (expected 1 second) = 1000316
20:58:00.379 -> PWM High duration (expected 1 second) = 1000316
20:58:02.395 -> PWM High duration (expected 1 second) = 1000316
20:58:04.363 -> PWM High duration (expected 1 second) = 1000312
20:58:06.378 -> PWM High duration (expected 1 second) = 1000312
20:58:08.393 -> PWM High duration (expected 1 second) = 1000316
20:58:10.361 -> PWM High duration (expected 1 second) = 1000316
20:58:12.376 -> PWM High duration (expected 1 second) = 1000312
20:58:14.392 -> PWM High duration (expected 1 second) = 1000308
20:58:16.360 -> PWM High duration (expected 1 second) = 1000316
20:58:18.375 -> PWM High duration (expected 1 second) = 1000312
20:58:20.390 -> PWM High duration (expected 1 second) = 1000316
20:58:22.359 -> PWM High duration (expected 1 second) = 1000312
20:58:24.374 -> PWM High duration (expected 1 second) = 1000308
20:58:26.389 -> PWM High duration (expected 1 second) = 1000316
20:58:28.357 -> PWM High duration (expected 1 second) = 1000308
20:58:30.372 -> PWM High duration (expected 1 second) = 1000316
20:58:32.387 -> PWM High duration (expected 1 second) = 1000312
20:58:34.356 -> PWM High duration (expected 1 second) = 1000312
20:58:36.371 -> PWM High duration (expected 1 second) = 1000308
20:58:38.386 -> PWM High duration (expected 1 second) = 1000312
20:58:40.354 -> PWM High duration (expected 1 second) = 1000316
20:58:42.369 -> PWM High duration (expected 1 second) = 1000316
20:58:44.385 -> PWM High duration (expected 1 second) = 1000312
20:58:46.353 -> PWM High duration (expected 1 second) = 1000308
20:58:48.368 -> PWM High duration (expected 1 second) = 1000312
20:58:50.383 -> PWM High duration (expected 1 second) = 1000316
20:58:52.351 -> PWM High duration (expected 1 second) = 1000312
20:58:54.367 -> PWM High duration (expected 1 second) = 1000316
20:58:56.382 -> PWM High duration (expected 1 second) = 1000312
20:58:58.350 -> PWM High duration (expected 1 second) = 1000312
20:59:00.365 -> PWM High duration (expected 1 second) = 1000312
20:59:02.380 -> PWM High duration (expected 1 second) = 1000312
20:59:04.349 -> PWM High duration (expected 1 second) = 1000312
20:59:06.364 -> PWM High duration (expected 1 second) = 1000312
20:59:08.379 -> PWM High duration (expected 1 second) = 1000312
20:59:10.347 -> PWM High duration (expected 1 second) = 1000312
20:59:12.362 -> PWM High duration (expected 1 second) = 1000312
20:59:14.378 -> PWM High duration (expected 1 second) = 1000316
20:59:16.393 -> PWM High duration (expected 1 second) = 1000316
20:59:18.361 -> PWM High duration (expected 1 second) = 1000312
20:59:20.376 -> PWM High duration (expected 1 second) = 1000316
20:59:22.391 -> PWM High duration (expected 1 second) = 1000316
20:59:24.360 -> PWM High duration (expected 1 second) = 1000312
20:59:26.375 -> PWM High duration (expected 1 second) = 1000312
20:59:28.390 -> PWM High duration (expected 1 second) = 1000312
20:59:30.358 -> PWM High duration (expected 1 second) = 1000316
20:59:32.373 -> PWM High duration (expected 1 second) = 1000316
20:59:34.388 -> PWM High duration (expected 1 second) = 1000312
20:59:36.357 -> PWM High duration (expected 1 second) = 1000312
20:59:38.372 -> PWM High duration (expected 1 second) = 1000312
20:59:40.387 -> PWM High duration (expected 1 second) = 1000316
20:59:42.355 -> PWM High duration (expected 1 second) = 1000312
20:59:44.370 -> PWM High duration (expected 1 second) = 1000312
20:59:46.386 -> PWM High duration (expected 1 second) = 1000312
20:59:48.354 -> PWM High duration (expected 1 second) = 1000312
20:59:50.369 -> PWM High duration (expected 1 second) = 1000312
20:59:52.384 -> PWM High duration (expected 1 second) = 1000312
20:59:54.352 -> PWM High duration (expected 1 second) = 1000312
20:59:56.368 -> PWM High duration (expected 1 second) = 1000312
20:59:58.383 -> PWM High duration (expected 1 second) = 1000312
21:00:00.351 -> PWM High duration (expected 1 second) = 1000312
21:00:04.381 -> PWM High duration (expected 1 second) = 0
21:00:04.381 -> Starting  ITimer1 OK, millis() = 436816
21:00:04.381 -> Hello!
21:00:04.803 -> Found chip PN532
21:00:04.803 -> Firmware ver. 1.6
21:00:04.850 -> Waiting for an ISO14443A Card ...
21:00:13.754 -> Found an ISO14443A card
21:00:13.754 ->   UID Length: 4 bytes
21:00:13.754 ->   UID Value: 0xB7 0x83 0x92 0xAB
21:00:13.754 -> 
21:00:13.754 -> Seems to be a Mifare Classic card (4 byte UID)
21:00:13.801 -> Step 1
21:00:13.848 -> Step 2
21:00:13.848 -> 0
21:00:13.848 -> 0
21:00:13.848 -> 0
21:00:13.848 -> 0
21:00:13.848 -> 0
21:00:13.895 -> Found an ISO14443A card
21:00:13.895 ->   UID Length: 4 bytes
21:00:13.895 ->   UID Value: 0xB7 0x83 0x92 0xAB
21:00:13.942 -> 
21:00:13.942 -> Seems to be a Mifare Classic card (4 byte UID)
21:00:13.942 -> Step 1
21:00:13.988 -> Step 2
21:00:14.035 -> 1
21:00:14.035 -> 0
21:00:14.035 -> 0
21:00:14.035 -> C
21:00:14.035 -> D
21:00:14.035 -> Block 4  01 05 06 18 00 00 00 00 00 00 00 00 00 00 00 00  ................
21:00:14.176 -> Step 3: newAbsIndex: 6
21:00:14.176 -> Block 5  01 00 00 0C 00 00 00 00 00 00 00 00 00 00 00 00  ................
21:00:14.223 -> Step 4
21:00:14.363 -> Block 4  01 06 00 0C 00 00 00 00 00 00 00 00 00 00 00 00  ................
21:00:14.926 -> Found an ISO14443A card
21:00:14.926 ->   UID Length: 4 bytes
21:00:14.926 ->   UID Value: 0xB7 0x83 0x92 0xAB
21:00:14.926 -> 
21:00:14.926 -> Seems to be a Mifare Classic card (4 byte UID)
21:00:14.973 -> Step 1
21:00:15.019 -> Step 2
21:00:15.019 -> 7D
21:00:15.019 -> 22
21:00:15.019 -> E2
21:00:15.019 -> 0
21:00:15.019 -> 0
21:00:15.207 -> Found an ISO14443A card
21:00:15.207 ->   UID Length: 4 bytes
21:00:15.207 ->   UID Value: 0xB7 0x83 0x92 0xAB
21:00:15.207 -> 
21:00:15.207 -> Seems to be a Mifare Classic card (4 byte UID)
21:00:15.254 -> keya failed, trying keyb on Block: 
21:00:15.254 -> 4Ooops ... authentication failed: Try another key?
21:00:15.301 -> keya failed, trying keyb on Block: 
21:00:15.301 -> 5Ooops ... authentication failed: Try another key?
21:00:15.394 -> keya failed, trying keyb on Block: 
21:00:15.394 -> 6Ooops ... authentication failed: Try another key?
21:00:15.488 -> keya failed, trying keyb on Block: 
21:00:15.488 -> 8Ooops ... authentication failed: Try another key?
21:00:15.535 -> keya failed, trying keyb on Block: 
21:00:15.582 -> 9Ooops ... authentication failed: Try another key?
21:00:15.629 -> keya failed, trying keyb on Block: 
21:00:15.629 -> 10Ooops ... authentication failed: Try another key?
21:00:15.722 -> keya failed, trying keyb on Block: 
21:00:15.722 -> 12Ooops ... authentication failed: Try another key?
21:00:15.816 -> keya failed, trying keyb on Block: 
21:00:15.816 -> 13Ooops ... authentication failed: Try another key?
21:00:15.863 -> keya failed, trying keyb on Block: 
21:00:15.863 -> 14Ooops ... authentication failed: Try another key?
21:00:15.957 -> keya failed, trying keyb on Block: 
21:00:15.957 -> 16Ooops ... authentication failed: Try another key?
21:00:16.050 -> keya failed, trying keyb on Block: 
21:00:16.050 -> 17Ooops ... authentication failed: Try another key?
21:00:16.097 -> keya failed, trying keyb on Block: 
21:00:16.097 -> 18Ooops ... authentication failed: Try another key?
21:00:16.566 -> Timer expired: Enabled hunt end detection
21:01:06.898 -> Found an ISO14443A card
21:01:06.898 ->   UID Length: 4 bytes
21:01:06.898 ->   UID Value: 0xA0 0xA1 0x36 0x52
21:01:06.898 -> 
21:01:06.898 -> Seems to be a Mifare Classic card (4 byte UID)
21:01:06.945 -> Step 1
21:01:06.991 -> Step 2
21:01:06.991 -> 7D
21:01:06.991 -> 22
21:01:06.991 -> E2
21:01:06.991 -> 0
21:01:06.991 -> 0
21:01:07.179 -> Found an ISO14443A card
21:01:07.179 ->   UID Length: 4 bytes
21:01:07.179 ->   UID Value: 0xA0 0xA1 0x36 0x52
21:01:07.179 -> 
21:01:07.179 -> Seems to be a Mifare Classic card (4 byte UID)
21:01:07.226 -> Step 1
21:01:07.273 -> Step 2
21:01:07.273 -> 1
21:01:07.273 -> 0
21:01:07.273 -> 1
21:01:07.273 -> 5
21:01:07.273 -> 7
21:01:07.273 -> Block 4  0B 05 00 00 00 00 00 00 00 00 00 00 00 00 00 00  ................
21:01:07.460 -> Step 3: newAbsIndex: 6
21:01:07.460 -> Block 5  01 00 01 05 00 00 00 00 00 00 00 00 00 00 00 00  ................
21:01:07.460 -> Step 4
21:01:07.601 -> Block 4  0B 06 01 05 00 00 00 00 00 00 00 00 00 00 00 00  ................
21:01:08.163 -> Found an ISO14443A card
21:01:08.163 ->   UID Length: 4 bytes
21:01:08.163 ->   UID Value: 0xA0 0xA1 0x36 0x52
21:01:08.163 -> 
21:01:08.163 -> Seems to be a Mifare Classic card (4 byte UID)
21:01:08.210 -> Step 1
21:01:08.257 -> Step 2
21:01:08.257 -> 7D
21:01:08.257 -> 22
21:01:08.257 -> E2
21:01:08.257 -> 0
21:01:08.257 -> 0
21:01:11.490 -> Found an ISO14443A card
21:01:11.490 ->   UID Length: 7 bytes
21:01:11.490 ->   UID Value: 0x04 0xBB 0x24 0xD2 0x20 0x4B 0x80
21:01:11.490 -> 
21:01:11.490 -> Seems to be a Mifare Ultralight tag (7 byte UID)
21:01:11.490 -> Reading page 4
21:01:11.537 -> 0A 01 00 00  ....
21:01:11.537 -> 7D
21:01:11.537 -> 22
21:01:11.537 -> E2
21:01:11.537 -> 0
21:01:11.537 -> 0
21:01:11.725 -> Found an ISO14443A card
21:01:11.725 ->   UID Length: 7 bytes
21:01:11.725 ->   UID Value: 0x04 0xBB 0x24 0xD2 0x20 0x4B 0x80
21:01:11.725 -> 
21:01:11.725 -> Seems to be a Mifare Ultralight tag (7 byte UID)
21:01:11.725 -> Reading page 4
21:01:11.772 -> 0A 01 00 00  ....
21:01:11.819 -> 1
21:01:11.819 -> 0
21:01:11.819 -> 1
21:01:11.819 -> A
21:01:11.819 -> C
21:01:12.006 -> 0A 02 00 00  ....
21:01:12.568 -> Found an ISO14443A card
21:01:12.568 ->   UID Length: 7 bytes
21:01:12.568 ->   UID Value: 0x04 0xBB 0x24 0xD2 0x20 0x4B 0x80
21:01:12.568 -> 
21:01:12.568 -> Seems to be a Mifare Ultralight tag (7 byte UID)
21:01:12.568 -> Reading page 4
21:01:12.615 -> 0A 02 00 00  ....
21:01:12.615 -> 7D
21:01:12.615 -> 22
21:01:12.615 -> E2
21:01:12.615 -> 0
21:01:12.662 -> 0
21:01:19.317 -> Timer expired: Enabled hunt end detection
21:01:30.892 -> Found an ISO14443A card
21:01:30.892 ->   UID Length: 7 bytes
21:01:30.892 ->   UID Value: 0x04 0xBB 0x24 0xD2 0x20 0x4B 0x80
21:01:30.892 -> 
21:01:30.892 -> Seems to be a Mifare Ultralight tag (7 byte UID)
21:01:30.892 -> Reading page 4
21:01:30.939 -> 0A 02 00 00  ....
21:01:30.939 -> 7D
21:01:30.939 -> 22
21:01:30.939 -> E2
21:01:30.939 -> 0
21:01:30.939 -> 0
21:01:31.126 -> Found an ISO14443A card
21:01:31.126 ->   UID Length: 7 bytes
21:01:31.126 ->   UID Value: 0x04 0xBB 0x24 0xD2 0x20 0x4B 0x80
21:01:31.126 -> 
21:01:31.126 -> Seems to be a Mifare Ultralight tag (7 byte UID)
21:01:31.126 -> Reading page 4
21:01:31.173 -> 0A 02 00 00  ....
21:01:31.173 -> 7D
21:01:31.173 -> 22
21:01:31.173 -> E2
21:01:31.220 -> 0
21:01:31.220 -> 0
21:01:31.361 -> Found an ISO14443A card
21:01:31.361 ->   UID Length: 7 bytes
21:01:31.361 ->   UID Value: 0x04 0xBB 0x24 0xD2 0x20 0x4B 0x80
21:01:31.408 -> 
21:01:31.408 -> Seems to be a Mifare Ultralight tag (7 byte UID)
21:01:31.408 -> Reading page 4
21:01:31.455 -> 0A 02 00 00  ....
21:01:31.455 -> 7D
21:01:31.455 -> 22
21:01:31.455 -> E2
21:01:31.455 -> 0
21:01:31.455 -> 0
21:01:31.642 -> Found an ISO14443A card
21:01:31.642 ->   UID Length: 7 bytes
21:01:31.642 ->   UID Value: 0x04 0xBB 0x24 0xD2 0x20 0x4B 0x80
21:01:31.642 -> 
21:01:31.642 -> Seems to be a Mifare Ultralight tag (7 byte UID)
21:01:31.642 -> Reading page 4
21:01:31.689 -> 0A 02 00 00  ....
21:01:31.689 -> 7D
21:01:31.689 -> 22
21:01:31.689 -> E2
21:01:31.689 -> 0
21:01:31.689 -> 0
21:01:31.876 -> Found an ISO14443A card
21:01:31.876 ->   UID Length: 7 bytes
21:01:31.876 ->   UID Value: 0x04 0xBB 0x24 0xD2 0x20 0x4B 0x80
21:01:31.876 -> 
21:01:31.876 -> Seems to be a Mifare Ultralight tag (7 byte UID)
21:01:31.876 -> Reading page 4
21:01:31.923 -> 0A 02 00 00  ....
21:01:31.923 -> 7D
21:01:31.970 -> 22
21:01:31.970 -> E2
21:01:31.970 -> 0
21:01:31.970 -> 0
21:01:32.111 -> Found an ISO14443A card
21:01:32.111 ->   UID Length: 7 bytes
21:01:32.111 ->   UID Value: 0x04 0xBB 0x24 0xD2 0x20 0x4B 0x80
21:01:32.157 -> 
21:01:32.157 -> Seems to be a Mifare Ultralight tag (7 byte UID)
21:01:32.157 -> Reading page 4
21:01:32.204 -> 0A 02 00 00  ....
21:01:32.204 -> 7D
21:01:32.204 -> 22
21:01:32.204 -> E2
21:01:32.204 -> 0
21:01:32.204 -> 0
21:01:35.344 -> Found an ISO14443A card
21:01:35.344 ->   UID Length: 4 bytes
21:01:35.344 ->   UID Value: 0xA0 0xA1 0x36 0x52
21:01:35.344 -> 
21:01:35.344 -> Seems to be a Mifare Classic card (4 byte UID)
21:01:35.391 -> Step 1
21:01:35.438 -> Step 2
21:01:35.438 -> 7D
21:01:35.438 -> 22
21:01:35.438 -> E2
21:01:35.438 -> 0
21:01:35.438 -> 0
21:01:35.625 -> Found an ISO14443A card
21:01:35.625 ->   UID Length: 4 bytes
21:01:35.625 ->   UID Value: 0xA0 0xA1 0x36 0x52
21:01:35.625 -> 
21:01:35.625 -> Seems to be a Mifare Classic card (4 byte UID)
21:01:35.672 -> Step 1
21:01:35.719 -> Step 2
21:01:35.719 -> 7D
21:01:35.719 -> 22
21:01:35.719 -> E2
21:01:35.719 -> 0
21:01:35.719 -> 0
21:01:35.907 -> Found an ISO14443A card
21:01:35.907 ->   UID Length: 4 bytes
21:01:35.907 ->   UID Value: 0xA0 0xA1 0x36 0x52
21:01:35.907 -> 
21:01:35.907 -> Seems to be a Mifare Classic card (4 byte UID)
21:01:35.953 -> Step 1
21:01:36.000 -> Step 2
21:01:36.000 -> 7D
21:01:36.000 -> 22
21:01:36.000 -> E2
21:01:36.000 -> 0
21:01:36.000 -> 0
21:01:36.188 -> Found an ISO14443A card
21:01:36.188 ->   UID Length: 4 bytes
21:01:36.188 ->   UID Value: 0xA0 0xA1 0x36 0x52
21:01:36.188 -> 
21:01:36.188 -> Seems to be a Mifare Classic card (4 byte UID)
21:01:36.235 -> Step 1
21:01:36.281 -> Step 2
21:01:36.281 -> 7D
21:01:36.281 -> 22
21:01:36.281 -> E2
21:01:36.281 -> 0
21:01:36.281 -> 0
21:01:36.469 -> Found an ISO14443A card
21:01:36.469 ->   UID Length: 4 bytes
21:01:36.469 ->   UID Value: 0xA0 0xA1 0x36 0x52
21:01:36.469 -> 
21:01:36.469 -> Seems to be a Mifare Classic card (4 byte UID)
21:01:36.469 -> Step 1
21:01:36.563 -> Step 2
21:01:36.563 -> 7D
21:01:36.563 -> 22
21:01:36.563 -> E2
21:01:36.563 -> 0
21:01:36.563 -> 0
21:01:36.703 -> Found an ISO14443A card
21:01:36.703 ->   UID Length: 4 bytes
21:01:36.703 ->   UID Value: 0xA0 0xA1 0x36 0x52
21:01:36.750 -> 
21:01:36.750 -> Seems to be a Mifare Classic card (4 byte UID)
21:01:36.750 -> Step 1
21:01:36.797 -> Step 2
21:01:36.844 -> 7D
21:01:36.844 -> 22
21:01:36.844 -> E2
21:01:36.844 -> 0
21:01:36.844 -> 0
21:01:36.984 -> Found an ISO14443A card
21:01:36.984 ->   UID Length: 4 bytes
21:01:36.984 ->   UID Value: 0xA0 0xA1 0x36 0x52
21:01:36.984 -> 
21:01:36.984 -> Seems to be a Mifare Classic card (4 byte UID)
21:01:37.031 -> Step 1
21:01:37.078 -> Step 2
21:01:37.078 -> 7D
21:01:37.078 -> 22
21:01:37.125 -> E2
21:01:37.125 -> 0
21:01:37.125 -> 0
21:01:37.266 -> Found an ISO14443A card
21:01:37.266 ->   UID Length: 4 bytes
21:01:37.266 ->   UID Value: 0xA0 0xA1 0x36 0x52
21:01:37.266 -> 
21:01:37.266 -> Seems to be a Mifare Classic card (4 byte UID)
21:01:37.312 -> Step 1
21:01:37.359 -> Step 2
21:01:37.359 -> 7D
21:01:37.359 -> 22
21:01:37.359 -> E2
21:01:37.359 -> 0
21:01:37.406 -> 0
21:01:43.545 -> Timer expired: Enabled hunt end detection
21:05:12.561 -> Found an ISO14443A card
21:05:12.561 ->   UID Length: 4 bytes
21:05:12.561 ->   UID Value: 0x13 0x06 0x77 0x01
21:05:12.561 -> 
21:05:12.561 -> Seems to be a Mifare Classic card (4 byte UID)
21:05:12.608 -> Step 1
21:05:12.654 -> Step 2
21:05:12.701 -> 7D
21:05:12.701 -> 22
21:05:12.701 -> E2
21:05:12.701 -> 0
21:05:12.701 -> 0
21:05:12.842 -> Found an ISO14443A card
21:05:12.842 ->   UID Length: 4 bytes
21:05:12.842 ->   UID Value: 0x13 0x06 0x77 0x01
21:05:12.842 -> 
21:05:12.842 -> Seems to be a Mifare Classic card (4 byte UID)
21:05:12.889 -> Step 1
21:05:12.935 -> Step 2
21:05:12.935 -> 1
21:05:12.935 -> 0
21:05:12.935 -> 5
21:05:12.935 -> B
21:05:12.935 -> 11
21:05:12.982 -> Block 4  0C 05 03 04 00 00 00 00 00 00 00 00 00 00 00 00  ................
21:05:13.123 -> Step 3: newAbsIndex: 6
21:05:13.123 -> Block 5  01 00 05 0B 00 00 00 00 00 00 00 00 00 00 00 00  ................
21:05:13.170 -> Step 4
21:05:13.311 -> Block 4  0C 06 05 0B 00 00 00 00 00 00 00 00 00 00 00 00  ................
21:05:13.873 -> Found an ISO14443A card
21:05:13.873 ->   UID Length: 4 bytes
21:05:13.873 ->   UID Value: 0x13 0x06 0x77 0x01
21:05:13.873 -> 
21:05:13.873 -> Seems to be a Mifare Classic card (4 byte UID)
21:05:13.920 -> Step 1
21:05:13.967 -> Step 2
21:05:13.967 -> 7D
21:05:13.967 -> 22
21:05:13.967 -> E2
21:05:13.967 -> 0
21:05:13.967 -> 0
21:05:23.902 -> Timer expired: Enabled hunt end detection
21:10:01.354 -> ISR: Hunt completed, powering down
