(kicad_sch (version 20211123) (generator eeschema)

  (uuid 54faea43-6b43-491b-b60a-604efae1b615)

  (paper "A4")

  (lib_symbols
    (symbol "Connector:DB9_Male" (pin_names (offset 1.016) hide) (in_bom yes) (on_board yes)
      (property "Reference" "J" (id 0) (at 0 13.97 0)
        (effects (font (size 1.27 1.27)))
      )
      (property "Value" "DB9_Male" (id 1) (at 0 -14.605 0)
        (effects (font (size 1.27 1.27)))
      )
      (property "Footprint" "" (id 2) (at 0 0 0)
        (effects (font (size 1.27 1.27)) hide)
      )
      (property "Datasheet" " ~" (id 3) (at 0 0 0)
        (effects (font (size 1.27 1.27)) hide)
      )
      (property "ki_keywords" "connector male D-SUB" (id 4) (at 0 0 0)
        (effects (font (size 1.27 1.27)) hide)
      )
      (property "ki_description" "9-pin male D-SUB connector" (id 5) (at 0 0 0)
        (effects (font (size 1.27 1.27)) hide)
      )
      (property "ki_fp_filters" "DSUB*Male*" (id 6) (at 0 0 0)
        (effects (font (size 1.27 1.27)) hide)
      )
      (symbol "DB9_Male_0_1"
        (circle (center -1.778 -10.16) (radius 0.762)
          (stroke (width 0) (type default) (color 0 0 0 0))
          (fill (type outline))
        )
        (circle (center -1.778 -5.08) (radius 0.762)
          (stroke (width 0) (type default) (color 0 0 0 0))
          (fill (type outline))
        )
        (circle (center -1.778 0) (radius 0.762)
          (stroke (width 0) (type default) (color 0 0 0 0))
          (fill (type outline))
        )
        (circle (center -1.778 5.08) (radius 0.762)
          (stroke (width 0) (type default) (color 0 0 0 0))
          (fill (type outline))
        )
        (circle (center -1.778 10.16) (radius 0.762)
          (stroke (width 0) (type default) (color 0 0 0 0))
          (fill (type outline))
        )
        (polyline
          (pts
            (xy -3.81 -10.16)
            (xy -2.54 -10.16)
          )
          (stroke (width 0) (type default) (color 0 0 0 0))
          (fill (type none))
        )
        (polyline
          (pts
            (xy -3.81 -7.62)
            (xy 0.508 -7.62)
          )
          (stroke (width 0) (type default) (color 0 0 0 0))
          (fill (type none))
        )
        (polyline
          (pts
            (xy -3.81 -5.08)
            (xy -2.54 -5.08)
          )
          (stroke (width 0) (type default) (color 0 0 0 0))
          (fill (type none))
        )
        (polyline
          (pts
            (xy -3.81 -2.54)
            (xy 0.508 -2.54)
          )
          (stroke (width 0) (type default) (color 0 0 0 0))
          (fill (type none))
        )
        (polyline
          (pts
            (xy -3.81 0)
            (xy -2.54 0)
          )
          (stroke (width 0) (type default) (color 0 0 0 0))
          (fill (type none))
        )
        (polyline
          (pts
            (xy -3.81 2.54)
            (xy 0.508 2.54)
          )
          (stroke (width 0) (type default) (color 0 0 0 0))
          (fill (type none))
        )
        (polyline
          (pts
            (xy -3.81 5.08)
            (xy -2.54 5.08)
          )
          (stroke (width 0) (type default) (color 0 0 0 0))
          (fill (type none))
        )
        (polyline
          (pts
            (xy -3.81 7.62)
            (xy 0.508 7.62)
          )
          (stroke (width 0) (type default) (color 0 0 0 0))
          (fill (type none))
        )
        (polyline
          (pts
            (xy -3.81 10.16)
            (xy -2.54 10.16)
          )
          (stroke (width 0) (type default) (color 0 0 0 0))
          (fill (type none))
        )
        (polyline
          (pts
            (xy -3.81 -13.335)
            (xy -3.81 13.335)
            (xy 3.81 9.525)
            (xy 3.81 -9.525)
            (xy -3.81 -13.335)
          )
          (stroke (width 0.254) (type default) (color 0 0 0 0))
          (fill (type background))
        )
        (circle (center 1.27 -7.62) (radius 0.762)
          (stroke (width 0) (type default) (color 0 0 0 0))
          (fill (type outline))
        )
        (circle (center 1.27 -2.54) (radius 0.762)
          (stroke (width 0) (type default) (color 0 0 0 0))
          (fill (type outline))
        )
        (circle (center 1.27 2.54) (radius 0.762)
          (stroke (width 0) (type default) (color 0 0 0 0))
          (fill (type outline))
        )
        (circle (center 1.27 7.62) (radius 0.762)
          (stroke (width 0) (type default) (color 0 0 0 0))
          (fill (type outline))
        )
      )
      (symbol "DB9_Male_1_1"
        (pin passive line (at -7.62 -10.16 0) (length 3.81)
          (name "1" (effects (font (size 1.27 1.27))))
          (number "1" (effects (font (size 1.27 1.27))))
        )
        (pin passive line (at -7.62 -5.08 0) (length 3.81)
          (name "2" (effects (font (size 1.27 1.27))))
          (number "2" (effects (font (size 1.27 1.27))))
        )
        (pin passive line (at -7.62 0 0) (length 3.81)
          (name "3" (effects (font (size 1.27 1.27))))
          (number "3" (effects (font (size 1.27 1.27))))
        )
        (pin passive line (at -7.62 5.08 0) (length 3.81)
          (name "4" (effects (font (size 1.27 1.27))))
          (number "4" (effects (font (size 1.27 1.27))))
        )
        (pin passive line (at -7.62 10.16 0) (length 3.81)
          (name "5" (effects (font (size 1.27 1.27))))
          (number "5" (effects (font (size 1.27 1.27))))
        )
        (pin passive line (at -7.62 -7.62 0) (length 3.81)
          (name "6" (effects (font (size 1.27 1.27))))
          (number "6" (effects (font (size 1.27 1.27))))
        )
        (pin passive line (at -7.62 -2.54 0) (length 3.81)
          (name "7" (effects (font (size 1.27 1.27))))
          (number "7" (effects (font (size 1.27 1.27))))
        )
        (pin passive line (at -7.62 2.54 0) (length 3.81)
          (name "8" (effects (font (size 1.27 1.27))))
          (number "8" (effects (font (size 1.27 1.27))))
        )
        (pin passive line (at -7.62 7.62 0) (length 3.81)
          (name "9" (effects (font (size 1.27 1.27))))
          (number "9" (effects (font (size 1.27 1.27))))
        )
      )
    )
    (symbol "Device:Battery_Cell" (pin_numbers hide) (pin_names (offset 0) hide) (in_bom yes) (on_board yes)
      (property "Reference" "BT" (id 0) (at 2.54 2.54 0)
        (effects (font (size 1.27 1.27)) (justify left))
      )
      (property "Value" "Battery_Cell" (id 1) (at 2.54 0 0)
        (effects (font (size 1.27 1.27)) (justify left))
      )
      (property "Footprint" "" (id 2) (at 0 1.524 90)
        (effects (font (size 1.27 1.27)) hide)
      )
      (property "Datasheet" "~" (id 3) (at 0 1.524 90)
        (effects (font (size 1.27 1.27)) hide)
      )
      (property "ki_keywords" "battery cell" (id 4) (at 0 0 0)
        (effects (font (size 1.27 1.27)) hide)
      )
      (property "ki_description" "Single-cell battery" (id 5) (at 0 0 0)
        (effects (font (size 1.27 1.27)) hide)
      )
      (symbol "Battery_Cell_0_1"
        (rectangle (start -2.286 1.778) (end 2.286 1.524)
          (stroke (width 0) (type default) (color 0 0 0 0))
          (fill (type outline))
        )
        (rectangle (start -1.5748 1.1938) (end 1.4732 0.6858)
          (stroke (width 0) (type default) (color 0 0 0 0))
          (fill (type outline))
        )
        (polyline
          (pts
            (xy 0 0.762)
            (xy 0 0)
          )
          (stroke (width 0) (type default) (color 0 0 0 0))
          (fill (type none))
        )
        (polyline
          (pts
            (xy 0 1.778)
            (xy 0 2.54)
          )
          (stroke (width 0) (type default) (color 0 0 0 0))
          (fill (type none))
        )
        (polyline
          (pts
            (xy 0.508 3.429)
            (xy 1.524 3.429)
          )
          (stroke (width 0.254) (type default) (color 0 0 0 0))
          (fill (type none))
        )
        (polyline
          (pts
            (xy 1.016 3.937)
            (xy 1.016 2.921)
          )
          (stroke (width 0.254) (type default) (color 0 0 0 0))
          (fill (type none))
        )
      )
      (symbol "Battery_Cell_1_1"
        (pin passive line (at 0 5.08 270) (length 2.54)
          (name "+" (effects (font (size 1.27 1.27))))
          (number "1" (effects (font (size 1.27 1.27))))
        )
        (pin passive line (at 0 -2.54 90) (length 2.54)
          (name "-" (effects (font (size 1.27 1.27))))
          (number "2" (effects (font (size 1.27 1.27))))
        )
      )
    )
    (symbol "Device:C" (pin_numbers hide) (pin_names (offset 0.254)) (in_bom yes) (on_board yes)
      (property "Reference" "C" (id 0) (at 0.635 2.54 0)
        (effects (font (size 1.27 1.27)) (justify left))
      )
      (property "Value" "C" (id 1) (at 0.635 -2.54 0)
        (effects (font (size 1.27 1.27)) (justify left))
      )
      (property "Footprint" "" (id 2) (at 0.9652 -3.81 0)
        (effects (font (size 1.27 1.27)) hide)
      )
      (property "Datasheet" "~" (id 3) (at 0 0 0)
        (effects (font (size 1.27 1.27)) hide)
      )
      (property "ki_keywords" "cap capacitor" (id 4) (at 0 0 0)
        (effects (font (size 1.27 1.27)) hide)
      )
      (property "ki_description" "Unpolarized capacitor" (id 5) (at 0 0 0)
        (effects (font (size 1.27 1.27)) hide)
      )
      (property "ki_fp_filters" "C_*" (id 6) (at 0 0 0)
        (effects (font (size 1.27 1.27)) hide)
      )
      (symbol "C_0_1"
        (polyline
          (pts
            (xy -2.032 -0.762)
            (xy 2.032 -0.762)
          )
          (stroke (width 0.508) (type default) (color 0 0 0 0))
          (fill (type none))
        )
        (polyline
          (pts
            (xy -2.032 0.762)
            (xy 2.032 0.762)
          )
          (stroke (width 0.508) (type default) (color 0 0 0 0))
          (fill (type none))
        )
      )
      (symbol "C_1_1"
        (pin passive line (at 0 3.81 270) (length 2.794)
          (name "~" (effects (font (size 1.27 1.27))))
          (number "1" (effects (font (size 1.27 1.27))))
        )
        (pin passive line (at 0 -3.81 90) (length 2.794)
          (name "~" (effects (font (size 1.27 1.27))))
          (number "2" (effects (font (size 1.27 1.27))))
        )
      )
    )
    (symbol "Device:C_Polarized" (pin_numbers hide) (pin_names (offset 0.254)) (in_bom yes) (on_board yes)
      (property "Reference" "C" (id 0) (at 0.635 2.54 0)
        (effects (font (size 1.27 1.27)) (justify left))
      )
      (property "Value" "C_Polarized" (id 1) (at 0.635 -2.54 0)
        (effects (font (size 1.27 1.27)) (justify left))
      )
      (property "Footprint" "" (id 2) (at 0.9652 -3.81 0)
        (effects (font (size 1.27 1.27)) hide)
      )
      (property "Datasheet" "~" (id 3) (at 0 0 0)
        (effects (font (size 1.27 1.27)) hide)
      )
      (property "ki_keywords" "cap capacitor" (id 4) (at 0 0 0)
        (effects (font (size 1.27 1.27)) hide)
      )
      (property "ki_description" "Polarized capacitor" (id 5) (at 0 0 0)
        (effects (font (size 1.27 1.27)) hide)
      )
      (property "ki_fp_filters" "CP_*" (id 6) (at 0 0 0)
        (effects (font (size 1.27 1.27)) hide)
      )
      (symbol "C_Polarized_0_1"
        (rectangle (start -2.286 0.508) (end 2.286 1.016)
          (stroke (width 0) (type default) (color 0 0 0 0))
          (fill (type none))
        )
        (polyline
          (pts
            (xy -1.778 2.286)
            (xy -0.762 2.286)
          )
          (stroke (width 0) (type default) (color 0 0 0 0))
          (fill (type none))
        )
        (polyline
          (pts
            (xy -1.27 2.794)
            (xy -1.27 1.778)
          )
          (stroke (width 0) (type default) (color 0 0 0 0))
          (fill (type none))
        )
        (rectangle (start 2.286 -0.508) (end -2.286 -1.016)
          (stroke (width 0) (type default) (color 0 0 0 0))
          (fill (type outline))
        )
      )
      (symbol "C_Polarized_1_1"
        (pin passive line (at 0 3.81 270) (length 2.794)
          (name "~" (effects (font (size 1.27 1.27))))
          (number "1" (effects (font (size 1.27 1.27))))
        )
        (pin passive line (at 0 -3.81 90) (length 2.794)
          (name "~" (effects (font (size 1.27 1.27))))
          (number "2" (effects (font (size 1.27 1.27))))
        )
      )
    )
    (symbol "Device:R" (pin_numbers hide) (pin_names (offset 0)) (in_bom yes) (on_board yes)
      (property "Reference" "R" (id 0) (at 2.032 0 90)
        (effects (font (size 1.27 1.27)))
      )
      (property "Value" "R" (id 1) (at 0 0 90)
        (effects (font (size 1.27 1.27)))
      )
      (property "Footprint" "" (id 2) (at -1.778 0 90)
        (effects (font (size 1.27 1.27)) hide)
      )
      (property "Datasheet" "~" (id 3) (at 0 0 0)
        (effects (font (size 1.27 1.27)) hide)
      )
      (property "ki_keywords" "R res resistor" (id 4) (at 0 0 0)
        (effects (font (size 1.27 1.27)) hide)
      )
      (property "ki_description" "Resistor" (id 5) (at 0 0 0)
        (effects (font (size 1.27 1.27)) hide)
      )
      (property "ki_fp_filters" "R_*" (id 6) (at 0 0 0)
        (effects (font (size 1.27 1.27)) hide)
      )
      (symbol "R_0_1"
        (rectangle (start -1.016 -2.54) (end 1.016 2.54)
          (stroke (width 0.254) (type default) (color 0 0 0 0))
          (fill (type none))
        )
      )
      (symbol "R_1_1"
        (pin passive line (at 0 3.81 270) (length 1.27)
          (name "~" (effects (font (size 1.27 1.27))))
          (number "1" (effects (font (size 1.27 1.27))))
        )
        (pin passive line (at 0 -3.81 90) (length 1.27)
          (name "~" (effects (font (size 1.27 1.27))))
          (number "2" (effects (font (size 1.27 1.27))))
        )
      )
    )
    (symbol "Device:R_Potentiometer" (pin_names (offset 1.016) hide) (in_bom yes) (on_board yes)
      (property "Reference" "RV" (id 0) (at -4.445 0 90)
        (effects (font (size 1.27 1.27)))
      )
      (property "Value" "R_Potentiometer" (id 1) (at -2.54 0 90)
        (effects (font (size 1.27 1.27)))
      )
      (property "Footprint" "" (id 2) (at 0 0 0)
        (effects (font (size 1.27 1.27)) hide)
      )
      (property "Datasheet" "~" (id 3) (at 0 0 0)
        (effects (font (size 1.27 1.27)) hide)
      )
      (property "ki_keywords" "resistor variable" (id 4) (at 0 0 0)
        (effects (font (size 1.27 1.27)) hide)
      )
      (property "ki_description" "Potentiometer" (id 5) (at 0 0 0)
        (effects (font (size 1.27 1.27)) hide)
      )
      (property "ki_fp_filters" "Potentiometer*" (id 6) (at 0 0 0)
        (effects (font (size 1.27 1.27)) hide)
      )
      (symbol "R_Potentiometer_0_1"
        (polyline
          (pts
            (xy 2.54 0)
            (xy 1.524 0)
          )
          (stroke (width 0) (type default) (color 0 0 0 0))
          (fill (type none))
        )
        (polyline
          (pts
            (xy 1.143 0)
            (xy 2.286 0.508)
            (xy 2.286 -0.508)
            (xy 1.143 0)
          )
          (stroke (width 0) (type default) (color 0 0 0 0))
          (fill (type outline))
        )
        (rectangle (start 1.016 2.54) (end -1.016 -2.54)
          (stroke (width 0.254) (type default) (color 0 0 0 0))
          (fill (type none))
        )
      )
      (symbol "R_Potentiometer_1_1"
        (pin passive line (at 0 3.81 270) (length 1.27)
          (name "1" (effects (font (size 1.27 1.27))))
          (number "1" (effects (font (size 1.27 1.27))))
        )
        (pin passive line (at 3.81 0 180) (length 1.27)
          (name "2" (effects (font (size 1.27 1.27))))
          (number "2" (effects (font (size 1.27 1.27))))
        )
        (pin passive line (at 0 -3.81 90) (length 1.27)
          (name "3" (effects (font (size 1.27 1.27))))
          (number "3" (effects (font (size 1.27 1.27))))
        )
      )
    )
    (symbol "Diode:1N4148" (pin_numbers hide) (pin_names (offset 1.016) hide) (in_bom yes) (on_board yes)
      (property "Reference" "D" (id 0) (at 0 2.54 0)
        (effects (font (size 1.27 1.27)))
      )
      (property "Value" "1N4148" (id 1) (at 0 -2.54 0)
        (effects (font (size 1.27 1.27)))
      )
      (property "Footprint" "Diode_THT:D_DO-35_SOD27_P7.62mm_Horizontal" (id 2) (at 0 -4.445 0)
        (effects (font (size 1.27 1.27)) hide)
      )
      (property "Datasheet" "https://assets.nexperia.com/documents/data-sheet/1N4148_1N4448.pdf" (id 3) (at 0 0 0)
        (effects (font (size 1.27 1.27)) hide)
      )
      (property "ki_keywords" "diode" (id 4) (at 0 0 0)
        (effects (font (size 1.27 1.27)) hide)
      )
      (property "ki_description" "100V 0.15A standard switching diode, DO-35" (id 5) (at 0 0 0)
        (effects (font (size 1.27 1.27)) hide)
      )
      (property "ki_fp_filters" "D*DO?35*" (id 6) (at 0 0 0)
        (effects (font (size 1.27 1.27)) hide)
      )
      (symbol "1N4148_0_1"
        (polyline
          (pts
            (xy -1.27 1.27)
            (xy -1.27 -1.27)
          )
          (stroke (width 0.254) (type default) (color 0 0 0 0))
          (fill (type none))
        )
        (polyline
          (pts
            (xy 1.27 0)
            (xy -1.27 0)
          )
          (stroke (width 0) (type default) (color 0 0 0 0))
          (fill (type none))
        )
        (polyline
          (pts
            (xy 1.27 1.27)
            (xy 1.27 -1.27)
            (xy -1.27 0)
            (xy 1.27 1.27)
          )
          (stroke (width 0.254) (type default) (color 0 0 0 0))
          (fill (type none))
        )
      )
      (symbol "1N4148_1_1"
        (pin passive line (at -3.81 0 0) (length 2.54)
          (name "K" (effects (font (size 1.27 1.27))))
          (number "1" (effects (font (size 1.27 1.27))))
        )
        (pin passive line (at 3.81 0 180) (length 2.54)
          (name "A" (effects (font (size 1.27 1.27))))
          (number "2" (effects (font (size 1.27 1.27))))
        )
      )
    )
    (symbol "Display_Character:RC1602A-GHW-ESX" (in_bom yes) (on_board yes)
      (property "Reference" "U" (id 0) (at -5.842 19.05 0)
        (effects (font (size 1.27 1.27)))
      )
      (property "Value" "RC1602A-GHW-ESX" (id 1) (at 3.81 19.05 0)
        (effects (font (size 1.27 1.27)) (justify left))
      )
      (property "Footprint" "Display:RC1602A" (id 2) (at 0 -22.86 0)
        (effects (font (size 1.27 1.27) italic) hide)
      )
      (property "Datasheet" "http://www.raystar-optronics.com/down.php?ProID=18" (id 3) (at -12.7 17.78 0)
        (effects (font (size 1.27 1.27)) hide)
      )
      (property "ki_keywords" "display LCD dot-matrix" (id 4) (at 0 0 0)
        (effects (font (size 1.27 1.27)) hide)
      )
      (property "ki_description" "LCD 16x2 Alphanumeric 16pin Gray Backlight" (id 5) (at 0 0 0)
        (effects (font (size 1.27 1.27)) hide)
      )
      (property "ki_fp_filters" "RC1602A*" (id 6) (at 0 0 0)
        (effects (font (size 1.27 1.27)) hide)
      )
      (symbol "RC1602A-GHW-ESX_0_0"
        (rectangle (start -2.794 8.89) (end 3.81 3.81)
          (stroke (width 0.254) (type default) (color 0 0 0 0))
          (fill (type background))
        )
        (text "16x2" (at 0.254 6.35 0)
          (effects (font (size 0.9906 0.9906) bold))
        )
      )
      (symbol "RC1602A-GHW-ESX_0_1"
        (rectangle (start -7.62 17.78) (end 7.62 -17.78)
          (stroke (width 0.254) (type default) (color 0 0 0 0))
          (fill (type background))
        )
      )
      (symbol "RC1602A-GHW-ESX_1_1"
        (pin power_in line (at 0 -20.32 90) (length 2.54)
          (name "VSS" (effects (font (size 1.27 1.27))))
          (number "1" (effects (font (size 1.27 1.27))))
        )
        (pin bidirectional line (at -10.16 -5.08 0) (length 2.54)
          (name "DB3" (effects (font (size 1.27 1.27))))
          (number "10" (effects (font (size 1.27 1.27))))
        )
        (pin bidirectional line (at -10.16 -7.62 0) (length 2.54)
          (name "DB4" (effects (font (size 1.27 1.27))))
          (number "11" (effects (font (size 1.27 1.27))))
        )
        (pin bidirectional line (at -10.16 -10.16 0) (length 2.54)
          (name "DB5" (effects (font (size 1.27 1.27))))
          (number "12" (effects (font (size 1.27 1.27))))
        )
        (pin bidirectional line (at -10.16 -12.7 0) (length 2.54)
          (name "DB6" (effects (font (size 1.27 1.27))))
          (number "13" (effects (font (size 1.27 1.27))))
        )
        (pin bidirectional line (at -10.16 -15.24 0) (length 2.54)
          (name "DB7" (effects (font (size 1.27 1.27))))
          (number "14" (effects (font (size 1.27 1.27))))
        )
        (pin passive line (at 10.16 0 180) (length 2.54)
          (name "A/VEE" (effects (font (size 1.27 1.27))))
          (number "15" (effects (font (size 1.27 1.27))))
        )
        (pin passive line (at 10.16 2.54 180) (length 2.54)
          (name "K" (effects (font (size 1.27 1.27))))
          (number "16" (effects (font (size 1.27 1.27))))
        )
        (pin power_in line (at 0 20.32 270) (length 2.54)
          (name "VDD" (effects (font (size 1.27 1.27))))
          (number "2" (effects (font (size 1.27 1.27))))
        )
        (pin input line (at -10.16 7.62 0) (length 2.54)
          (name "Vo" (effects (font (size 1.27 1.27))))
          (number "3" (effects (font (size 1.27 1.27))))
        )
        (pin input line (at -10.16 15.24 0) (length 2.54)
          (name "RS" (effects (font (size 1.27 1.27))))
          (number "4" (effects (font (size 1.27 1.27))))
        )
        (pin input line (at -10.16 12.7 0) (length 2.54)
          (name "R/~{W}" (effects (font (size 1.27 1.27))))
          (number "5" (effects (font (size 1.27 1.27))))
        )
        (pin input line (at -10.16 10.16 0) (length 2.54)
          (name "~{E}" (effects (font (size 1.27 1.27))))
          (number "6" (effects (font (size 1.27 1.27))))
        )
        (pin bidirectional line (at -10.16 2.54 0) (length 2.54)
          (name "DB0" (effects (font (size 1.27 1.27))))
          (number "7" (effects (font (size 1.27 1.27))))
        )
        (pin bidirectional line (at -10.16 0 0) (length 2.54)
          (name "DB1" (effects (font (size 1.27 1.27))))
          (number "8" (effects (font (size 1.27 1.27))))
        )
        (pin bidirectional line (at -10.16 -2.54 0) (length 2.54)
          (name "DB2" (effects (font (size 1.27 1.27))))
          (number "9" (effects (font (size 1.27 1.27))))
        )
        (pin passive line (at 10.16 -2.54 180) (length 2.54)
          (name "A" (effects (font (size 1.27 1.27))))
          (number "A1" (effects (font (size 1.27 1.27))))
        )
        (pin passive line (at 10.16 -5.08 180) (length 2.54)
          (name "K" (effects (font (size 1.27 1.27))))
          (number "K1" (effects (font (size 1.27 1.27))))
        )
      )
    )
    (symbol "MCU_Microchip_PIC16:PIC16F88-IP" (pin_names (offset 1.016)) (in_bom yes) (on_board yes)
      (property "Reference" "U" (id 0) (at -22.86 17.78 0)
        (effects (font (size 1.27 1.27)) (justify left))
      )
      (property "Value" "PIC16F88-IP" (id 1) (at -22.86 15.24 0)
        (effects (font (size 1.27 1.27)) (justify left))
      )
      (property "Footprint" "" (id 2) (at 0 0 0)
        (effects (font (size 1.27 1.27) italic) hide)
      )
      (property "Datasheet" "http://ww1.microchip.com/downloads/en/DeviceDoc/30487D.pdf" (id 3) (at 0 0 0)
        (effects (font (size 1.27 1.27)) hide)
      )
      (property "ki_keywords" "FLASH-Based 8-Bit CMOS Microcontroller" (id 4) (at 0 0 0)
        (effects (font (size 1.27 1.27)) hide)
      )
      (property "ki_description" "PIC16F88, 4096W Flash, 368B SRAM, 256B EEPROM, DIP18" (id 5) (at 0 0 0)
        (effects (font (size 1.27 1.27)) hide)
      )
      (property "ki_fp_filters" "DIP* PDIP*" (id 6) (at 0 0 0)
        (effects (font (size 1.27 1.27)) hide)
      )
      (symbol "PIC16F88-IP_0_1"
        (rectangle (start 24.13 13.97) (end -24.13 -13.97)
          (stroke (width 0.254) (type default) (color 0 0 0 0))
          (fill (type background))
        )
      )
      (symbol "PIC16F88-IP_1_1"
        (pin bidirectional line (at 27.94 5.08 180) (length 3.81)
          (name "Vref-/CVref/AN2/RA2" (effects (font (size 1.27 1.27))))
          (number "1" (effects (font (size 1.27 1.27))))
        )
        (pin bidirectional line (at -27.94 0 0) (length 3.81)
          (name "RB4/SCK/SCL" (effects (font (size 1.27 1.27))))
          (number "10" (effects (font (size 1.27 1.27))))
        )
        (pin bidirectional line (at -27.94 -2.54 0) (length 3.81)
          (name "RB5/~{SS}/TX/CK" (effects (font (size 1.27 1.27))))
          (number "11" (effects (font (size 1.27 1.27))))
        )
        (pin bidirectional line (at -27.94 -5.08 0) (length 3.81)
          (name "RB6/AN5/PGC/T1CKI" (effects (font (size 1.27 1.27))))
          (number "12" (effects (font (size 1.27 1.27))))
        )
        (pin bidirectional line (at -27.94 -7.62 0) (length 3.81)
          (name "RB7/AN6/PGD/T1OSI" (effects (font (size 1.27 1.27))))
          (number "13" (effects (font (size 1.27 1.27))))
        )
        (pin power_in line (at 0 17.78 270) (length 3.81)
          (name "VDD" (effects (font (size 1.27 1.27))))
          (number "14" (effects (font (size 1.27 1.27))))
        )
        (pin bidirectional line (at 27.94 -5.08 180) (length 3.81)
          (name "CLKOUT/OSC2/RA6" (effects (font (size 1.27 1.27))))
          (number "15" (effects (font (size 1.27 1.27))))
        )
        (pin bidirectional line (at 27.94 -7.62 180) (length 3.81)
          (name "CLKIN/OSC1/RA7" (effects (font (size 1.27 1.27))))
          (number "16" (effects (font (size 1.27 1.27))))
        )
        (pin bidirectional line (at 27.94 10.16 180) (length 3.81)
          (name "AN0/RA0" (effects (font (size 1.27 1.27))))
          (number "17" (effects (font (size 1.27 1.27))))
        )
        (pin bidirectional line (at 27.94 7.62 180) (length 3.81)
          (name "AN1/RA1" (effects (font (size 1.27 1.27))))
          (number "18" (effects (font (size 1.27 1.27))))
        )
        (pin bidirectional line (at 27.94 2.54 180) (length 3.81)
          (name "C1OUT/Vref+/AN3/RA3" (effects (font (size 1.27 1.27))))
          (number "2" (effects (font (size 1.27 1.27))))
        )
        (pin bidirectional line (at 27.94 0 180) (length 3.81)
          (name "C2OUT/T0CKI/AN4/RA4" (effects (font (size 1.27 1.27))))
          (number "3" (effects (font (size 1.27 1.27))))
        )
        (pin input line (at 27.94 -2.54 180) (length 3.81)
          (name "~{MCLR}/Vpp/RA5" (effects (font (size 1.27 1.27))))
          (number "4" (effects (font (size 1.27 1.27))))
        )
        (pin power_in line (at 0 -17.78 90) (length 3.81)
          (name "VSS" (effects (font (size 1.27 1.27))))
          (number "5" (effects (font (size 1.27 1.27))))
        )
        (pin bidirectional line (at -27.94 10.16 0) (length 3.81)
          (name "RB0/INT/CCP1" (effects (font (size 1.27 1.27))))
          (number "6" (effects (font (size 1.27 1.27))))
        )
        (pin bidirectional line (at -27.94 7.62 0) (length 3.81)
          (name "RB1/SDI/SDA" (effects (font (size 1.27 1.27))))
          (number "7" (effects (font (size 1.27 1.27))))
        )
        (pin bidirectional line (at -27.94 5.08 0) (length 3.81)
          (name "RB2/SDO/RX/DT" (effects (font (size 1.27 1.27))))
          (number "8" (effects (font (size 1.27 1.27))))
        )
        (pin bidirectional line (at -27.94 2.54 0) (length 3.81)
          (name "RB3/PGM/CCP1" (effects (font (size 1.27 1.27))))
          (number "9" (effects (font (size 1.27 1.27))))
        )
      )
    )
    (symbol "Regulator_Linear:LM7805_TO220" (pin_names (offset 0.254)) (in_bom yes) (on_board yes)
      (property "Reference" "U" (id 0) (at -3.81 3.175 0)
        (effects (font (size 1.27 1.27)))
      )
      (property "Value" "LM7805_TO220" (id 1) (at 0 3.175 0)
        (effects (font (size 1.27 1.27)) (justify left))
      )
      (property "Footprint" "Package_TO_SOT_THT:TO-220-3_Vertical" (id 2) (at 0 5.715 0)
        (effects (font (size 1.27 1.27) italic) hide)
      )
      (property "Datasheet" "https://www.onsemi.cn/PowerSolutions/document/MC7800-D.PDF" (id 3) (at 0 -1.27 0)
        (effects (font (size 1.27 1.27)) hide)
      )
      (property "ki_keywords" "Voltage Regulator 1A Positive" (id 4) (at 0 0 0)
        (effects (font (size 1.27 1.27)) hide)
      )
      (property "ki_description" "Positive 1A 35V Linear Regulator, Fixed Output 5V, TO-220" (id 5) (at 0 0 0)
        (effects (font (size 1.27 1.27)) hide)
      )
      (property "ki_fp_filters" "TO?220*" (id 6) (at 0 0 0)
        (effects (font (size 1.27 1.27)) hide)
      )
      (symbol "LM7805_TO220_0_1"
        (rectangle (start -5.08 1.905) (end 5.08 -5.08)
          (stroke (width 0.254) (type default) (color 0 0 0 0))
          (fill (type background))
        )
      )
      (symbol "LM7805_TO220_1_1"
        (pin power_in line (at -7.62 0 0) (length 2.54)
          (name "VI" (effects (font (size 1.27 1.27))))
          (number "1" (effects (font (size 1.27 1.27))))
        )
        (pin power_in line (at 0 -7.62 90) (length 2.54)
          (name "GND" (effects (font (size 1.27 1.27))))
          (number "2" (effects (font (size 1.27 1.27))))
        )
        (pin power_out line (at 7.62 0 180) (length 2.54)
          (name "VO" (effects (font (size 1.27 1.27))))
          (number "3" (effects (font (size 1.27 1.27))))
        )
      )
    )
    (symbol "Switch:SW_Push" (pin_numbers hide) (pin_names (offset 1.016) hide) (in_bom yes) (on_board yes)
      (property "Reference" "SW" (id 0) (at 1.27 2.54 0)
        (effects (font (size 1.27 1.27)) (justify left))
      )
      (property "Value" "SW_Push" (id 1) (at 0 -1.524 0)
        (effects (font (size 1.27 1.27)))
      )
      (property "Footprint" "" (id 2) (at 0 5.08 0)
        (effects (font (size 1.27 1.27)) hide)
      )
      (property "Datasheet" "~" (id 3) (at 0 5.08 0)
        (effects (font (size 1.27 1.27)) hide)
      )
      (property "ki_keywords" "switch normally-open pushbutton push-button" (id 4) (at 0 0 0)
        (effects (font (size 1.27 1.27)) hide)
      )
      (property "ki_description" "Push button switch, generic, two pins" (id 5) (at 0 0 0)
        (effects (font (size 1.27 1.27)) hide)
      )
      (symbol "SW_Push_0_1"
        (circle (center -2.032 0) (radius 0.508)
          (stroke (width 0) (type default) (color 0 0 0 0))
          (fill (type none))
        )
        (polyline
          (pts
            (xy 0 1.27)
            (xy 0 3.048)
          )
          (stroke (width 0) (type default) (color 0 0 0 0))
          (fill (type none))
        )
        (polyline
          (pts
            (xy 2.54 1.27)
            (xy -2.54 1.27)
          )
          (stroke (width 0) (type default) (color 0 0 0 0))
          (fill (type none))
        )
        (circle (center 2.032 0) (radius 0.508)
          (stroke (width 0) (type default) (color 0 0 0 0))
          (fill (type none))
        )
        (pin passive line (at -5.08 0 0) (length 2.54)
          (name "1" (effects (font (size 1.27 1.27))))
          (number "1" (effects (font (size 1.27 1.27))))
        )
        (pin passive line (at 5.08 0 180) (length 2.54)
          (name "2" (effects (font (size 1.27 1.27))))
          (number "2" (effects (font (size 1.27 1.27))))
        )
      )
    )
    (symbol "power:GNDD" (power) (pin_names (offset 0)) (in_bom yes) (on_board yes)
      (property "Reference" "#PWR" (id 0) (at 0 -6.35 0)
        (effects (font (size 1.27 1.27)) hide)
      )
      (property "Value" "GNDD" (id 1) (at 0 -3.175 0)
        (effects (font (size 1.27 1.27)))
      )
      (property "Footprint" "" (id 2) (at 0 0 0)
        (effects (font (size 1.27 1.27)) hide)
      )
      (property "Datasheet" "" (id 3) (at 0 0 0)
        (effects (font (size 1.27 1.27)) hide)
      )
      (property "ki_keywords" "power-flag" (id 4) (at 0 0 0)
        (effects (font (size 1.27 1.27)) hide)
      )
      (property "ki_description" "Power symbol creates a global label with name \"GNDD\" , digital ground" (id 5) (at 0 0 0)
        (effects (font (size 1.27 1.27)) hide)
      )
      (symbol "GNDD_0_1"
        (rectangle (start -1.27 -1.524) (end 1.27 -2.032)
          (stroke (width 0.254) (type default) (color 0 0 0 0))
          (fill (type outline))
        )
        (polyline
          (pts
            (xy 0 0)
            (xy 0 -1.524)
          )
          (stroke (width 0) (type default) (color 0 0 0 0))
          (fill (type none))
        )
      )
      (symbol "GNDD_1_1"
        (pin power_in line (at 0 0 270) (length 0) hide
          (name "GNDD" (effects (font (size 1.27 1.27))))
          (number "1" (effects (font (size 1.27 1.27))))
        )
      )
    )
  )

  (junction (at 93.98 45.72) (diameter 0) (color 0 0 0 0)
    (uuid 05e220ae-3493-4567-994a-ba02900086c2)
  )
  (junction (at 87.63 71.12) (diameter 0) (color 0 0 0 0)
    (uuid 0ef2bfb5-ca68-465d-bf80-c36645dcbf6a)
  )
  (junction (at 55.88 97.79) (diameter 0) (color 0 0 0 0)
    (uuid 292fd424-58f1-47cb-a60c-bedbba3bdc8d)
  )
  (junction (at 55.88 71.12) (diameter 0) (color 0 0 0 0)
    (uuid 2994ea91-289b-4b7e-8015-db6a79c2e053)
  )
  (junction (at 220.98 86.36) (diameter 0) (color 0 0 0 0)
    (uuid 36a8aa5f-25e0-4cf5-9d15-14de1c4b76d3)
  )
  (junction (at 66.04 92.71) (diameter 0) (color 0 0 0 0)
    (uuid 38af99fe-728c-4b73-8751-1265944eb3e2)
  )
  (junction (at 220.98 45.72) (diameter 0) (color 0 0 0 0)
    (uuid 49991039-da45-4c6e-9be0-4fd136852361)
  )
  (junction (at 80.01 53.34) (diameter 0) (color 0 0 0 0)
    (uuid 4f029565-812b-47da-adfd-42617b774e75)
  )
  (junction (at 87.63 100.33) (diameter 0) (color 0 0 0 0)
    (uuid 582800af-b72e-4e70-b9f9-516ee655bb63)
  )
  (junction (at 133.35 71.12) (diameter 0) (color 0 0 0 0)
    (uuid 625647c6-d5c6-4071-a3e7-7efac474480c)
  )
  (junction (at 66.04 53.34) (diameter 0) (color 0 0 0 0)
    (uuid 6f2d571d-2847-4c90-89c9-aacd447e98c9)
  )
  (junction (at 80.01 45.72) (diameter 0) (color 0 0 0 0)
    (uuid 6fbd9fd4-98c4-4dad-b709-f0a9297c1502)
  )
  (junction (at 133.35 45.72) (diameter 0) (color 0 0 0 0)
    (uuid 758dc25c-b340-4658-af36-a573662b3512)
  )
  (junction (at 77.47 71.12) (diameter 0) (color 0 0 0 0)
    (uuid 7bfbd611-0a3e-499f-ad63-95347fcb7983)
  )
  (junction (at 43.18 71.12) (diameter 0) (color 0 0 0 0)
    (uuid 7d4fbdb0-8e67-4787-b547-34d2eac9487a)
  )
  (junction (at 66.04 71.12) (diameter 0) (color 0 0 0 0)
    (uuid 7f47cd6c-9b53-4b3d-9e80-1d41d2e9aae1)
  )
  (junction (at 257.81 45.72) (diameter 0) (color 0 0 0 0)
    (uuid 84c0df40-c699-42cf-89ed-484e8e08faaa)
  )
  (junction (at 43.18 100.33) (diameter 0) (color 0 0 0 0)
    (uuid 84f10335-b067-40c4-9ff9-fd8132c8981f)
  )
  (junction (at 50.8 45.72) (diameter 0) (color 0 0 0 0)
    (uuid 866aa535-d110-435f-baf3-20d53cff33b9)
  )
  (junction (at 77.47 90.17) (diameter 0) (color 0 0 0 0)
    (uuid ac00f556-31db-42cb-a327-33c0aa9013ac)
  )
  (junction (at 50.8 53.34) (diameter 0) (color 0 0 0 0)
    (uuid af658968-bd96-4905-b562-4cbcd03a4e43)
  )
  (junction (at 66.04 97.79) (diameter 0) (color 0 0 0 0)
    (uuid c13ef5bb-e35f-422d-bfa7-e28c2e2949d3)
  )
  (junction (at 87.63 95.25) (diameter 0) (color 0 0 0 0)
    (uuid e180370d-86eb-4aff-b5d1-31f471f9c5e1)
  )

  (wire (pts (xy 66.04 76.2) (xy 66.04 71.12))
    (stroke (width 0) (type default) (color 0 0 0 0))
    (uuid 012a8d4a-f20e-4d47-b7a7-555f7d453729)
  )
  (wire (pts (xy 133.35 45.72) (xy 133.35 71.12))
    (stroke (width 0) (type default) (color 0 0 0 0))
    (uuid 02b29ba1-a083-4ce8-a90a-a6d0cdf65fc6)
  )
  (wire (pts (xy 210.82 76.2) (xy 161.29 76.2))
    (stroke (width 0) (type default) (color 0 0 0 0))
    (uuid 06256641-4587-46ab-af1f-84579086b8f7)
  )
  (wire (pts (xy 66.04 97.79) (xy 55.88 97.79))
    (stroke (width 0) (type default) (color 0 0 0 0))
    (uuid 0dbfcf21-0478-460f-960f-24e82e07b249)
  )
  (wire (pts (xy 87.63 95.25) (xy 87.63 100.33))
    (stroke (width 0) (type default) (color 0 0 0 0))
    (uuid 14022222-5bad-4676-8994-ee16e1661c76)
  )
  (wire (pts (xy 187.96 100.33) (xy 187.96 55.88))
    (stroke (width 0) (type default) (color 0 0 0 0))
    (uuid 143a8c57-62b9-4ead-8261-52389819f992)
  )
  (wire (pts (xy 43.18 105.41) (xy 43.18 100.33))
    (stroke (width 0) (type default) (color 0 0 0 0))
    (uuid 147dbb01-30ff-4709-b6fd-ee934d0b5448)
  )
  (wire (pts (xy 161.29 76.2) (xy 161.29 90.17))
    (stroke (width 0) (type default) (color 0 0 0 0))
    (uuid 1639bc54-361e-41b1-a57a-c4bdab4efd62)
  )
  (wire (pts (xy 43.18 71.12) (xy 43.18 76.2))
    (stroke (width 0) (type default) (color 0 0 0 0))
    (uuid 1724725e-11c5-461c-9d98-b09c71ab2edf)
  )
  (wire (pts (xy 87.63 100.33) (xy 105.41 100.33))
    (stroke (width 0) (type default) (color 0 0 0 0))
    (uuid 1942a7a1-e5a5-4f5b-bbd6-c7cbb444451a)
  )
  (wire (pts (xy 161.29 105.41) (xy 210.82 105.41))
    (stroke (width 0) (type default) (color 0 0 0 0))
    (uuid 1bec2a2d-6e91-4d85-84d6-d9f7f6fabf31)
  )
  (wire (pts (xy 123.19 146.05) (xy 123.19 142.24))
    (stroke (width 0) (type default) (color 0 0 0 0))
    (uuid 1c09a3cb-93cc-4749-90bf-8bf3347fe385)
  )
  (wire (pts (xy 80.01 53.34) (xy 93.98 53.34))
    (stroke (width 0) (type default) (color 0 0 0 0))
    (uuid 1e0bcf33-c3c9-4c08-ae51-f8f41a7d454b)
  )
  (wire (pts (xy 133.35 45.72) (xy 220.98 45.72))
    (stroke (width 0) (type default) (color 0 0 0 0))
    (uuid 219d0f36-9194-436b-a276-44df6e7992e6)
  )
  (wire (pts (xy 92.71 102.87) (xy 105.41 102.87))
    (stroke (width 0) (type default) (color 0 0 0 0))
    (uuid 21fb98f8-5d79-4bb0-b454-59003552dc0e)
  )
  (wire (pts (xy 161.29 95.25) (xy 182.88 95.25))
    (stroke (width 0) (type default) (color 0 0 0 0))
    (uuid 220bc456-9cb6-4016-b168-a5e56a904f84)
  )
  (wire (pts (xy 50.8 53.34) (xy 66.04 53.34))
    (stroke (width 0) (type default) (color 0 0 0 0))
    (uuid 251e6ae2-ffb8-47d5-9ca4-a18844a17b11)
  )
  (wire (pts (xy 120.65 146.05) (xy 92.71 146.05))
    (stroke (width 0) (type default) (color 0 0 0 0))
    (uuid 270d8293-acda-4c3f-9d27-34015e62eeda)
  )
  (wire (pts (xy 66.04 97.79) (xy 66.04 115.57))
    (stroke (width 0) (type default) (color 0 0 0 0))
    (uuid 287e8d2c-7fb3-47b1-8f21-7a4861eac74c)
  )
  (wire (pts (xy 87.63 138.43) (xy 130.81 138.43))
    (stroke (width 0) (type default) (color 0 0 0 0))
    (uuid 2e847f33-6fef-404a-b2dd-c7d647f1f7b4)
  )
  (wire (pts (xy 25.4 53.34) (xy 50.8 53.34))
    (stroke (width 0) (type default) (color 0 0 0 0))
    (uuid 2e84e168-7671-48c3-9756-41f5d87ef58a)
  )
  (wire (pts (xy 66.04 53.34) (xy 80.01 53.34))
    (stroke (width 0) (type default) (color 0 0 0 0))
    (uuid 3060b269-f12d-42b9-b547-ac4add968486)
  )
  (wire (pts (xy 77.47 71.12) (xy 87.63 71.12))
    (stroke (width 0) (type default) (color 0 0 0 0))
    (uuid 3ca44173-5b7d-43ed-981b-7662b33719ad)
  )
  (wire (pts (xy 55.88 83.82) (xy 55.88 97.79))
    (stroke (width 0) (type default) (color 0 0 0 0))
    (uuid 405b75de-cc6d-4347-bb21-9f1d56c5e100)
  )
  (wire (pts (xy 77.47 83.82) (xy 77.47 90.17))
    (stroke (width 0) (type default) (color 0 0 0 0))
    (uuid 41308c44-1bc1-450f-8a4e-00eb8626d202)
  )
  (wire (pts (xy 163.83 73.66) (xy 210.82 73.66))
    (stroke (width 0) (type default) (color 0 0 0 0))
    (uuid 4265a974-3dd3-4c3c-b495-3a35cfda6e1f)
  )
  (wire (pts (xy 87.63 76.2) (xy 87.63 71.12))
    (stroke (width 0) (type default) (color 0 0 0 0))
    (uuid 431dbaa9-e725-479f-b680-557cf3e9d529)
  )
  (wire (pts (xy 87.63 83.82) (xy 87.63 95.25))
    (stroke (width 0) (type default) (color 0 0 0 0))
    (uuid 4948acd2-de65-4bbe-a89c-6d9cc7a2db50)
  )
  (wire (pts (xy 50.8 45.72) (xy 58.42 45.72))
    (stroke (width 0) (type default) (color 0 0 0 0))
    (uuid 4a97694f-ec09-4276-82d0-98cbc212b9ae)
  )
  (wire (pts (xy 87.63 71.12) (xy 133.35 71.12))
    (stroke (width 0) (type default) (color 0 0 0 0))
    (uuid 4b20c331-51f8-49c2-bb84-1738378d3acc)
  )
  (wire (pts (xy 87.63 113.03) (xy 87.63 138.43))
    (stroke (width 0) (type default) (color 0 0 0 0))
    (uuid 4c0f1d7d-b38b-449d-abe0-1ce96c97e195)
  )
  (wire (pts (xy 210.82 105.41) (xy 210.82 81.28))
    (stroke (width 0) (type default) (color 0 0 0 0))
    (uuid 4c97da23-5ad5-43f8-bcba-07f09332c1ae)
  )
  (wire (pts (xy 93.98 45.72) (xy 133.35 45.72))
    (stroke (width 0) (type default) (color 0 0 0 0))
    (uuid 4ccd9e1b-3753-4246-981e-aea5e6f4888f)
  )
  (wire (pts (xy 161.29 92.71) (xy 163.83 92.71))
    (stroke (width 0) (type default) (color 0 0 0 0))
    (uuid 51d69f58-11e7-4492-949e-8d455d4c545a)
  )
  (wire (pts (xy 161.29 100.33) (xy 187.96 100.33))
    (stroke (width 0) (type default) (color 0 0 0 0))
    (uuid 56fc3399-cf29-41d2-9d47-7956198a93b8)
  )
  (wire (pts (xy 43.18 100.33) (xy 87.63 100.33))
    (stroke (width 0) (type default) (color 0 0 0 0))
    (uuid 57bcb906-7b4a-4be1-a997-8762594a9974)
  )
  (wire (pts (xy 77.47 90.17) (xy 105.41 90.17))
    (stroke (width 0) (type default) (color 0 0 0 0))
    (uuid 615b2169-0484-47f9-95ef-ec88f5421074)
  )
  (wire (pts (xy 73.66 45.72) (xy 80.01 45.72))
    (stroke (width 0) (type default) (color 0 0 0 0))
    (uuid 6ae81d2f-6612-4b48-b115-b118f0d1de42)
  )
  (wire (pts (xy 77.47 76.2) (xy 77.47 71.12))
    (stroke (width 0) (type default) (color 0 0 0 0))
    (uuid 6b2d1297-0a49-4266-90f9-0389ce0f0c3f)
  )
  (wire (pts (xy 185.42 53.34) (xy 210.82 53.34))
    (stroke (width 0) (type default) (color 0 0 0 0))
    (uuid 6fd9816f-c06d-4fab-be41-4962bf922cb7)
  )
  (wire (pts (xy 77.47 90.17) (xy 77.47 124.46))
    (stroke (width 0) (type default) (color 0 0 0 0))
    (uuid 71e1d88c-cfd4-4982-be17-18281e384664)
  )
  (wire (pts (xy 231.14 71.12) (xy 231.14 86.36))
    (stroke (width 0) (type default) (color 0 0 0 0))
    (uuid 75af891c-78de-40a2-ab5e-630c90b8a984)
  )
  (wire (pts (xy 182.88 95.25) (xy 182.88 50.8))
    (stroke (width 0) (type default) (color 0 0 0 0))
    (uuid 7a0acdd5-30e3-4539-a4cc-a1feb0b869f1)
  )
  (wire (pts (xy 161.29 107.95) (xy 208.28 107.95))
    (stroke (width 0) (type default) (color 0 0 0 0))
    (uuid 7c0e9f21-0656-4662-9f32-1fee95e16ee2)
  )
  (wire (pts (xy 200.66 34.29) (xy 269.24 34.29))
    (stroke (width 0) (type default) (color 0 0 0 0))
    (uuid 7cb533fb-2c04-4414-b3a2-04b66ee36362)
  )
  (wire (pts (xy 55.88 97.79) (xy 55.88 106.68))
    (stroke (width 0) (type default) (color 0 0 0 0))
    (uuid 7e1b0289-8d23-490a-b4b5-05af23ed62a4)
  )
  (wire (pts (xy 66.04 92.71) (xy 66.04 97.79))
    (stroke (width 0) (type default) (color 0 0 0 0))
    (uuid 806706b6-1ac5-4495-93f9-3802da3bb2a0)
  )
  (wire (pts (xy 257.81 66.04) (xy 257.81 45.72))
    (stroke (width 0) (type default) (color 0 0 0 0))
    (uuid 8175a043-36aa-4dce-b7d9-d53f401abcf7)
  )
  (wire (pts (xy 210.82 58.42) (xy 200.66 58.42))
    (stroke (width 0) (type default) (color 0 0 0 0))
    (uuid 82764968-7d8e-414e-b28e-7d9b228e31dc)
  )
  (wire (pts (xy 87.63 100.33) (xy 87.63 105.41))
    (stroke (width 0) (type default) (color 0 0 0 0))
    (uuid 885a2b74-9a28-42ae-a229-2c3478e1b0af)
  )
  (wire (pts (xy 29.21 71.12) (xy 43.18 71.12))
    (stroke (width 0) (type default) (color 0 0 0 0))
    (uuid 8bcdb9d6-d838-4284-9746-ca2aa1ae046a)
  )
  (wire (pts (xy 66.04 71.12) (xy 77.47 71.12))
    (stroke (width 0) (type default) (color 0 0 0 0))
    (uuid 8ed0a457-8690-4e11-9e90-eb0f11ab4196)
  )
  (wire (pts (xy 187.96 55.88) (xy 210.82 55.88))
    (stroke (width 0) (type default) (color 0 0 0 0))
    (uuid 90cab659-172f-4d72-8050-40da6a7a6a0a)
  )
  (wire (pts (xy 25.4 45.72) (xy 33.02 45.72))
    (stroke (width 0) (type default) (color 0 0 0 0))
    (uuid 922da9bb-e0ae-4b18-ab10-dd7cbcf0eec9)
  )
  (wire (pts (xy 252.73 66.04) (xy 257.81 66.04))
    (stroke (width 0) (type default) (color 0 0 0 0))
    (uuid 938b7747-6003-4350-86d3-bfd6f2310ded)
  )
  (wire (pts (xy 238.76 66.04) (xy 242.57 66.04))
    (stroke (width 0) (type default) (color 0 0 0 0))
    (uuid 983b7711-3c21-43d3-af70-486b84a99e18)
  )
  (wire (pts (xy 123.19 142.24) (xy 29.21 142.24))
    (stroke (width 0) (type default) (color 0 0 0 0))
    (uuid a6e188b8-7940-41cc-9c69-f942d12124f6)
  )
  (wire (pts (xy 163.83 92.71) (xy 163.83 73.66))
    (stroke (width 0) (type default) (color 0 0 0 0))
    (uuid ae389851-0738-4d93-a4f3-b66b64fa180b)
  )
  (wire (pts (xy 133.35 71.12) (xy 133.35 82.55))
    (stroke (width 0) (type default) (color 0 0 0 0))
    (uuid b02a4627-e4e2-4502-acad-0a0702f4d306)
  )
  (wire (pts (xy 231.14 86.36) (xy 220.98 86.36))
    (stroke (width 0) (type default) (color 0 0 0 0))
    (uuid ba14a0b4-b614-453b-b9e8-c881959c4bea)
  )
  (wire (pts (xy 182.88 50.8) (xy 210.82 50.8))
    (stroke (width 0) (type default) (color 0 0 0 0))
    (uuid c3547254-56de-4b0b-952f-65f0bb370a5a)
  )
  (wire (pts (xy 185.42 97.79) (xy 185.42 53.34))
    (stroke (width 0) (type default) (color 0 0 0 0))
    (uuid c600fe11-70ec-433e-ba66-e6889752b475)
  )
  (wire (pts (xy 220.98 45.72) (xy 257.81 45.72))
    (stroke (width 0) (type default) (color 0 0 0 0))
    (uuid cf7e76df-33a6-4a8c-9fcf-065607b77f2c)
  )
  (wire (pts (xy 80.01 45.72) (xy 93.98 45.72))
    (stroke (width 0) (type default) (color 0 0 0 0))
    (uuid d02f1650-1285-4f9e-98fe-379de40d1cd2)
  )
  (wire (pts (xy 92.71 146.05) (xy 92.71 102.87))
    (stroke (width 0) (type default) (color 0 0 0 0))
    (uuid d25daf18-6e72-4297-9397-8064ac49ee4e)
  )
  (wire (pts (xy 43.18 45.72) (xy 50.8 45.72))
    (stroke (width 0) (type default) (color 0 0 0 0))
    (uuid d3a3cd99-bf4a-4bb5-b070-15160537b2b7)
  )
  (wire (pts (xy 105.41 97.79) (xy 66.04 97.79))
    (stroke (width 0) (type default) (color 0 0 0 0))
    (uuid d56d7ee1-a0bc-4213-9d2d-51880825c8d0)
  )
  (wire (pts (xy 43.18 100.33) (xy 43.18 83.82))
    (stroke (width 0) (type default) (color 0 0 0 0))
    (uuid daa2f93e-1752-4b78-9df5-d7b211277553)
  )
  (wire (pts (xy 269.24 41.91) (xy 269.24 34.29))
    (stroke (width 0) (type default) (color 0 0 0 0))
    (uuid dcdc2e87-e39a-47cd-a2ad-d4dda57c705e)
  )
  (wire (pts (xy 66.04 83.82) (xy 66.04 92.71))
    (stroke (width 0) (type default) (color 0 0 0 0))
    (uuid e25f7f24-e7b1-4ebb-8766-56e2b17864c9)
  )
  (wire (pts (xy 161.29 97.79) (xy 185.42 97.79))
    (stroke (width 0) (type default) (color 0 0 0 0))
    (uuid e96cbe18-33c5-466f-86dd-653e31a36755)
  )
  (wire (pts (xy 29.21 142.24) (xy 29.21 71.12))
    (stroke (width 0) (type default) (color 0 0 0 0))
    (uuid e9b992e5-b736-414c-9ed6-82fd657335b9)
  )
  (wire (pts (xy 257.81 45.72) (xy 265.43 45.72))
    (stroke (width 0) (type default) (color 0 0 0 0))
    (uuid e9de6002-506e-4dcd-a3ee-5fcfbe3f4f0a)
  )
  (wire (pts (xy 105.41 92.71) (xy 66.04 92.71))
    (stroke (width 0) (type default) (color 0 0 0 0))
    (uuid eaa5259a-dcae-42b4-8d0f-7a29809454fe)
  )
  (wire (pts (xy 43.18 71.12) (xy 55.88 71.12))
    (stroke (width 0) (type default) (color 0 0 0 0))
    (uuid ead36f37-2025-41a0-a3f6-d82c03c6c26a)
  )
  (wire (pts (xy 208.28 78.74) (xy 210.82 78.74))
    (stroke (width 0) (type default) (color 0 0 0 0))
    (uuid eedc01c6-e36b-480b-83e6-f228f92a6164)
  )
  (wire (pts (xy 130.81 138.43) (xy 130.81 146.05))
    (stroke (width 0) (type default) (color 0 0 0 0))
    (uuid eef22976-8792-4a7a-b769-512799796227)
  )
  (wire (pts (xy 55.88 71.12) (xy 66.04 71.12))
    (stroke (width 0) (type default) (color 0 0 0 0))
    (uuid f29efc3d-f970-4b62-ba2a-da9696e7f5bb)
  )
  (wire (pts (xy 208.28 107.95) (xy 208.28 78.74))
    (stroke (width 0) (type default) (color 0 0 0 0))
    (uuid f48c0514-8903-41ef-8930-beb87f509380)
  )
  (wire (pts (xy 55.88 76.2) (xy 55.88 71.12))
    (stroke (width 0) (type default) (color 0 0 0 0))
    (uuid f669bdc1-ee7f-40bb-8e40-a15cc7bb3ba0)
  )
  (wire (pts (xy 200.66 58.42) (xy 200.66 34.29))
    (stroke (width 0) (type default) (color 0 0 0 0))
    (uuid fc14bb31-58f4-4e48-93c0-8d52ab4ef18d)
  )
  (wire (pts (xy 105.41 95.25) (xy 87.63 95.25))
    (stroke (width 0) (type default) (color 0 0 0 0))
    (uuid fc6689ba-c0b1-45a0-a6c8-61c3d95e3092)
  )

  (text "Power consumption:\nNo backlight = 7mA\nWith backlight = 35mA"
    (at 39.37 187.96 0)
    (effects (font (size 1.27 1.27)) (justify left bottom))
    (uuid 7925e576-5095-420a-b60e-ae848415382f)
  )

  (label "+5V" (at 111.76 142.24 0)
    (effects (font (size 1.27 1.27)) (justify left bottom))
    (uuid 18982e30-ecd3-43d9-b343-319177fb1c7f)
  )
  (label "Tx" (at 113.03 146.05 0)
    (effects (font (size 1.27 1.27)) (justify left bottom))
    (uuid 221dd82b-ac53-4170-971c-f6af37301c96)
  )
  (label "+5V" (at 96.52 45.72 0)
    (effects (font (size 1.27 1.27)) (justify left bottom))
    (uuid 8912ae9f-8233-453b-9d4d-8e7ce9370800)
  )
  (label "Rx" (at 113.03 138.43 0)
    (effects (font (size 1.27 1.27)) (justify left bottom))
    (uuid 9a20d536-f67c-4960-8a55-357ee49f2063)
  )
  (label "Contrast" (at 256.54 34.29 0)
    (effects (font (size 1.27 1.27)) (justify left bottom))
    (uuid e6fac55a-284f-4950-a5f0-89ddf784b064)
  )

  (symbol (lib_id "power:GNDD") (at 133.35 118.11 0) (unit 1)
    (in_bom yes) (on_board yes) (fields_autoplaced)
    (uuid 0290e27f-849f-4dba-bb3b-acd45754bc80)
    (property "Reference" "#PWR06" (id 0) (at 133.35 124.46 0)
      (effects (font (size 1.27 1.27)) hide)
    )
    (property "Value" "GNDD" (id 1) (at 133.35 123.19 0))
    (property "Footprint" "" (id 2) (at 133.35 118.11 0)
      (effects (font (size 1.27 1.27)) hide)
    )
    (property "Datasheet" "" (id 3) (at 133.35 118.11 0)
      (effects (font (size 1.27 1.27)) hide)
    )
    (pin "1" (uuid 80a3efb6-439d-471e-b08e-9ddd2562dfe4))
  )

  (symbol (lib_id "Switch:SW_Push") (at 55.88 111.76 90) (unit 1)
    (in_bom yes) (on_board yes) (fields_autoplaced)
    (uuid 0b3b95cd-d5f3-4646-9174-604cf6915773)
    (property "Reference" "SW2" (id 0) (at 57.15 110.4899 90)
      (effects (font (size 1.27 1.27)) (justify right))
    )
    (property "Value" "Down" (id 1) (at 57.15 113.0299 90)
      (effects (font (size 1.27 1.27)) (justify right))
    )
    (property "Footprint" "" (id 2) (at 50.8 111.76 0)
      (effects (font (size 1.27 1.27)) hide)
    )
    (property "Datasheet" "~" (id 3) (at 50.8 111.76 0)
      (effects (font (size 1.27 1.27)) hide)
    )
    (pin "1" (uuid ddc3ac86-81db-4408-a0c4-e51d0b4c5a2a))
    (pin "2" (uuid 2052f42b-2171-438e-9bf4-38ad408c3998))
  )

  (symbol (lib_id "Device:R") (at 43.18 80.01 0) (unit 1)
    (in_bom yes) (on_board yes) (fields_autoplaced)
    (uuid 293f6823-22a6-4dff-9f94-4ef80a5d0d66)
    (property "Reference" "R1" (id 0) (at 45.72 78.7399 0)
      (effects (font (size 1.27 1.27)) (justify left))
    )
    (property "Value" "10k" (id 1) (at 45.72 81.2799 0)
      (effects (font (size 1.27 1.27)) (justify left))
    )
    (property "Footprint" "" (id 2) (at 41.402 80.01 90)
      (effects (font (size 1.27 1.27)) hide)
    )
    (property "Datasheet" "~" (id 3) (at 43.18 80.01 0)
      (effects (font (size 1.27 1.27)) hide)
    )
    (pin "1" (uuid 82b76d8b-7267-41ff-9cdc-b4c9f95f2997))
    (pin "2" (uuid 6f9504f2-2f49-4a41-9453-8ea95ec61309))
  )

  (symbol (lib_id "power:GNDD") (at 77.47 134.62 0) (unit 1)
    (in_bom yes) (on_board yes) (fields_autoplaced)
    (uuid 33aa7f7e-3acc-469d-bd18-e67989b2835b)
    (property "Reference" "#PWR04" (id 0) (at 77.47 140.97 0)
      (effects (font (size 1.27 1.27)) hide)
    )
    (property "Value" "GNDD" (id 1) (at 77.47 139.7 0))
    (property "Footprint" "" (id 2) (at 77.47 134.62 0)
      (effects (font (size 1.27 1.27)) hide)
    )
    (property "Datasheet" "" (id 3) (at 77.47 134.62 0)
      (effects (font (size 1.27 1.27)) hide)
    )
    (pin "1" (uuid bbb46cf8-30dd-4273-8145-13c3f13e3ca8))
  )

  (symbol (lib_id "power:GNDD") (at 66.04 53.34 0) (unit 1)
    (in_bom yes) (on_board yes)
    (uuid 40c10d96-48bc-4541-a83f-97298d7933cf)
    (property "Reference" "#PWR09" (id 0) (at 66.04 59.69 0)
      (effects (font (size 1.27 1.27)) hide)
    )
    (property "Value" "GNDD" (id 1) (at 66.1416 57.277 0))
    (property "Footprint" "" (id 2) (at 66.04 53.34 0)
      (effects (font (size 1.27 1.27)) hide)
    )
    (property "Datasheet" "" (id 3) (at 66.04 53.34 0)
      (effects (font (size 1.27 1.27)) hide)
    )
    (pin "1" (uuid b324dc46-946d-439c-aa09-0669ca5f9e64))
  )

  (symbol (lib_id "Device:C") (at 93.98 49.53 0) (unit 1)
    (in_bom yes) (on_board yes) (fields_autoplaced)
    (uuid 45675d12-af70-41cf-92c7-a89ebe1ac3db)
    (property "Reference" "C3" (id 0) (at 97.79 48.2599 0)
      (effects (font (size 1.27 1.27)) (justify left))
    )
    (property "Value" "100mF" (id 1) (at 97.79 50.7999 0)
      (effects (font (size 1.27 1.27)) (justify left))
    )
    (property "Footprint" "" (id 2) (at 94.9452 53.34 0)
      (effects (font (size 1.27 1.27)) hide)
    )
    (property "Datasheet" "~" (id 3) (at 93.98 49.53 0)
      (effects (font (size 1.27 1.27)) hide)
    )
    (pin "1" (uuid b81d8d35-310e-48cc-8f11-d9a36166d8e6))
    (pin "2" (uuid 02ade60f-6624-4734-ba55-5ec3580f98ae))
  )

  (symbol (lib_id "Device:R_Potentiometer") (at 269.24 45.72 270) (mirror x) (unit 1)
    (in_bom yes) (on_board yes) (fields_autoplaced)
    (uuid 4c4956b5-2a27-4bf6-82e4-670298293e41)
    (property "Reference" "RV1" (id 0) (at 269.24 49.53 90))
    (property "Value" "R_Potentiometer" (id 1) (at 269.24 52.07 90))
    (property "Footprint" "" (id 2) (at 269.24 45.72 0)
      (effects (font (size 1.27 1.27)) hide)
    )
    (property "Datasheet" "~" (id 3) (at 269.24 45.72 0)
      (effects (font (size 1.27 1.27)) hide)
    )
    (pin "1" (uuid 2026df30-1630-4a2f-96e2-46c79a125482))
    (pin "2" (uuid 28e21155-3e34-4a02-b93b-b883764d6f81))
    (pin "3" (uuid a321905a-6978-4948-9653-5c9fb82afcd1))
  )

  (symbol (lib_id "power:GNDD") (at 55.88 116.84 0) (unit 1)
    (in_bom yes) (on_board yes) (fields_autoplaced)
    (uuid 4f46582b-025d-4645-83a5-46273e54931b)
    (property "Reference" "#PWR02" (id 0) (at 55.88 123.19 0)
      (effects (font (size 1.27 1.27)) hide)
    )
    (property "Value" "GNDD" (id 1) (at 55.88 121.92 0))
    (property "Footprint" "" (id 2) (at 55.88 116.84 0)
      (effects (font (size 1.27 1.27)) hide)
    )
    (property "Datasheet" "" (id 3) (at 55.88 116.84 0)
      (effects (font (size 1.27 1.27)) hide)
    )
    (pin "1" (uuid ca3dee91-ba30-4956-8cb9-21fb8e0ddf42))
  )

  (symbol (lib_id "Switch:SW_Push") (at 77.47 129.54 90) (unit 1)
    (in_bom yes) (on_board yes) (fields_autoplaced)
    (uuid 5daf339a-fc27-49c7-8bdf-bc5cedefbd4a)
    (property "Reference" "SW4" (id 0) (at 78.74 128.2699 90)
      (effects (font (size 1.27 1.27)) (justify right))
    )
    (property "Value" "Right" (id 1) (at 78.74 130.8099 90)
      (effects (font (size 1.27 1.27)) (justify right))
    )
    (property "Footprint" "" (id 2) (at 72.39 129.54 0)
      (effects (font (size 1.27 1.27)) hide)
    )
    (property "Datasheet" "~" (id 3) (at 72.39 129.54 0)
      (effects (font (size 1.27 1.27)) hide)
    )
    (pin "1" (uuid 52595cbf-fde5-433f-be53-a0504ea3e29e))
    (pin "2" (uuid 7c17f382-b68f-4584-bd91-65a4261693d4))
  )

  (symbol (lib_id "MCU_Microchip_PIC16:PIC16F88-IP") (at 133.35 100.33 0) (unit 1)
    (in_bom yes) (on_board yes) (fields_autoplaced)
    (uuid 60b4685f-7a43-440d-ade7-517da905e4a4)
    (property "Reference" "U1" (id 0) (at 135.3694 81.28 0)
      (effects (font (size 1.27 1.27)) (justify left))
    )
    (property "Value" "PIC16F88-IP" (id 1) (at 135.3694 83.82 0)
      (effects (font (size 1.27 1.27)) (justify left))
    )
    (property "Footprint" "" (id 2) (at 133.35 100.33 0)
      (effects (font (size 1.27 1.27) italic) hide)
    )
    (property "Datasheet" "http://ww1.microchip.com/downloads/en/DeviceDoc/30487D.pdf" (id 3) (at 133.35 100.33 0)
      (effects (font (size 1.27 1.27)) hide)
    )
    (pin "1" (uuid d6f3b696-d927-4da9-8168-65085660908c))
    (pin "10" (uuid 7043f87f-5e95-45d1-a8fb-1a0b7548f6cf))
    (pin "11" (uuid 9ec87d26-1008-4346-92e6-14ed8e806725))
    (pin "12" (uuid 58b90c16-6fad-464b-b376-ef3a8e6f8b42))
    (pin "13" (uuid a3c487b9-a759-4ddb-824a-849d7720813c))
    (pin "14" (uuid 26fc1d14-5c21-4ab7-9b9e-9cd9b295e36d))
    (pin "15" (uuid 810e2a56-1a64-40a4-9bef-9895cd677c0c))
    (pin "16" (uuid 34075f38-577b-4063-9256-d14305e034a1))
    (pin "17" (uuid f4c9e718-0ad9-4d47-b469-94f670356b65))
    (pin "18" (uuid 720b5f51-1744-4603-bfee-6ef71e69873d))
    (pin "2" (uuid 805a8b7c-1101-405f-ae1e-4bd385e84c69))
    (pin "3" (uuid c2da61d0-e6d2-4e82-9a1c-2c9bd7ff79ed))
    (pin "4" (uuid 946de1bc-7eaf-49a8-8a92-cf989c178c98))
    (pin "5" (uuid 21e0fe06-3f34-4d97-8f6a-f0e0e76b70e9))
    (pin "6" (uuid dc7e5bed-6df6-4437-bcda-4da1c6bfee3f))
    (pin "7" (uuid 143f807c-dd09-4a52-b2e5-1db918a387d3))
    (pin "8" (uuid 5979c613-2767-475f-99b0-252f68e7ee78))
    (pin "9" (uuid bb03f639-841f-42f9-a7b1-054a93cd79ba))
  )

  (symbol (lib_id "Device:R") (at 87.63 80.01 0) (unit 1)
    (in_bom yes) (on_board yes) (fields_autoplaced)
    (uuid 60c76a65-c20e-4bfd-b608-7dd711e04653)
    (property "Reference" "R6" (id 0) (at 90.17 78.7399 0)
      (effects (font (size 1.27 1.27)) (justify left))
    )
    (property "Value" "10k" (id 1) (at 90.17 81.2799 0)
      (effects (font (size 1.27 1.27)) (justify left))
    )
    (property "Footprint" "" (id 2) (at 85.852 80.01 90)
      (effects (font (size 1.27 1.27)) hide)
    )
    (property "Datasheet" "~" (id 3) (at 87.63 80.01 0)
      (effects (font (size 1.27 1.27)) hide)
    )
    (pin "1" (uuid fafb3e3c-9514-4c49-b2c4-8f30c72ef077))
    (pin "2" (uuid 924097ca-ecc9-41a4-82da-5c7e509d7eaa))
  )

  (symbol (lib_id "Switch:SW_Push") (at 247.65 66.04 180) (unit 1)
    (in_bom yes) (on_board yes) (fields_autoplaced)
    (uuid 6e642c27-6391-4341-920a-ceae4cc96f0c)
    (property "Reference" "SW5" (id 0) (at 247.65 60.96 0))
    (property "Value" "Backlight ON/OFF" (id 1) (at 247.65 63.5 0))
    (property "Footprint" "" (id 2) (at 247.65 71.12 0)
      (effects (font (size 1.27 1.27)) hide)
    )
    (property "Datasheet" "~" (id 3) (at 247.65 71.12 0)
      (effects (font (size 1.27 1.27)) hide)
    )
    (pin "1" (uuid c3a8eff5-42bb-4f3c-aac0-a0f91b10a5ba))
    (pin "2" (uuid 187e89f5-d77b-4a04-9249-ddf225bbe1f3))
  )

  (symbol (lib_id "power:GNDD") (at 273.05 45.72 90) (unit 1)
    (in_bom yes) (on_board yes)
    (uuid 770dcbc6-9ee4-4124-89d1-5b12c3884250)
    (property "Reference" "#PWR08" (id 0) (at 279.4 45.72 0)
      (effects (font (size 1.27 1.27)) hide)
    )
    (property "Value" "GNDD" (id 1) (at 278.13 45.72 90))
    (property "Footprint" "" (id 2) (at 273.05 45.72 0)
      (effects (font (size 1.27 1.27)) hide)
    )
    (property "Datasheet" "" (id 3) (at 273.05 45.72 0)
      (effects (font (size 1.27 1.27)) hide)
    )
    (pin "1" (uuid 39205e85-19a9-4321-9a71-bf8218a95b25))
  )

  (symbol (lib_id "Switch:SW_Push") (at 43.18 105.41 90) (unit 1)
    (in_bom yes) (on_board yes) (fields_autoplaced)
    (uuid 855ef815-9b5f-4cf2-bf91-b6b8b6c4800e)
    (property "Reference" "SW1" (id 0) (at 44.45 104.1399 90)
      (effects (font (size 1.27 1.27)) (justify right))
    )
    (property "Value" "Left" (id 1) (at 44.45 106.6799 90)
      (effects (font (size 1.27 1.27)) (justify right))
    )
    (property "Footprint" "" (id 2) (at 38.1 105.41 0)
      (effects (font (size 1.27 1.27)) hide)
    )
    (property "Datasheet" "~" (id 3) (at 38.1 105.41 0)
      (effects (font (size 1.27 1.27)) hide)
    )
    (pin "1" (uuid ce25e16a-9a88-4d88-8c02-ef08dc26a8a6))
    (pin "2" (uuid d3f43da4-816b-4396-91ca-126a2819d2dd))
  )

  (symbol (lib_id "Device:R") (at 77.47 80.01 0) (unit 1)
    (in_bom yes) (on_board yes) (fields_autoplaced)
    (uuid 867c7839-281c-4a37-9edc-adc9bf71b620)
    (property "Reference" "R4" (id 0) (at 80.01 78.7399 0)
      (effects (font (size 1.27 1.27)) (justify left))
    )
    (property "Value" "10k" (id 1) (at 80.01 81.2799 0)
      (effects (font (size 1.27 1.27)) (justify left))
    )
    (property "Footprint" "" (id 2) (at 75.692 80.01 90)
      (effects (font (size 1.27 1.27)) hide)
    )
    (property "Datasheet" "~" (id 3) (at 77.47 80.01 0)
      (effects (font (size 1.27 1.27)) hide)
    )
    (pin "1" (uuid c17f6c8a-083d-47c7-88d6-bc72da7f096d))
    (pin "2" (uuid a8ff0587-c5e9-4413-b0db-d2c2d4245d2b))
  )

  (symbol (lib_id "Device:R") (at 234.95 66.04 90) (unit 1)
    (in_bom yes) (on_board yes) (fields_autoplaced)
    (uuid 88192a42-e036-4e47-bc97-d352e94e21d6)
    (property "Reference" "R5" (id 0) (at 234.95 59.69 90))
    (property "Value" "33R" (id 1) (at 234.95 62.23 90))
    (property "Footprint" "" (id 2) (at 234.95 67.818 90)
      (effects (font (size 1.27 1.27)) hide)
    )
    (property "Datasheet" "~" (id 3) (at 234.95 66.04 0)
      (effects (font (size 1.27 1.27)) hide)
    )
    (pin "1" (uuid c1c4efc8-da67-45f3-be6c-22099fb47032))
    (pin "2" (uuid 8d4bd210-1120-45c7-b3a7-c13b020f846c))
  )

  (symbol (lib_id "Switch:SW_Push") (at 66.04 120.65 90) (unit 1)
    (in_bom yes) (on_board yes) (fields_autoplaced)
    (uuid 93e001c6-4b39-49f3-8d8a-c3feec1dbe95)
    (property "Reference" "SW3" (id 0) (at 67.31 119.3799 90)
      (effects (font (size 1.27 1.27)) (justify right))
    )
    (property "Value" "Up" (id 1) (at 67.31 121.9199 90)
      (effects (font (size 1.27 1.27)) (justify right))
    )
    (property "Footprint" "" (id 2) (at 60.96 120.65 0)
      (effects (font (size 1.27 1.27)) hide)
    )
    (property "Datasheet" "~" (id 3) (at 60.96 120.65 0)
      (effects (font (size 1.27 1.27)) hide)
    )
    (pin "1" (uuid caa45f3f-b4a3-4c64-9531-e9d98d81e67b))
    (pin "2" (uuid e707f992-9a93-47c3-9d46-a7e3c985d3ba))
  )

  (symbol (lib_id "Device:C_Polarized") (at 50.8 49.53 0) (unit 1)
    (in_bom yes) (on_board yes) (fields_autoplaced)
    (uuid 945f68ab-a1eb-4de1-8d72-0fbdc4f76abf)
    (property "Reference" "C1" (id 0) (at 54.61 47.3709 0)
      (effects (font (size 1.27 1.27)) (justify left))
    )
    (property "Value" "220uF" (id 1) (at 54.61 49.9109 0)
      (effects (font (size 1.27 1.27)) (justify left))
    )
    (property "Footprint" "" (id 2) (at 51.7652 53.34 0)
      (effects (font (size 1.27 1.27)) hide)
    )
    (property "Datasheet" "~" (id 3) (at 50.8 49.53 0)
      (effects (font (size 1.27 1.27)) hide)
    )
    (pin "1" (uuid 83490fb7-7c41-4b59-a734-318acb25518e))
    (pin "2" (uuid 3c3247bf-4710-4619-b39c-d25e1f4b431e))
  )

  (symbol (lib_id "Switch:SW_Push") (at 38.1 45.72 0) (unit 1)
    (in_bom yes) (on_board yes) (fields_autoplaced)
    (uuid 979e014e-da96-4c24-b1a7-28bafb61ed35)
    (property "Reference" "SW6" (id 0) (at 38.1 38.1 0))
    (property "Value" "ON/OFF" (id 1) (at 38.1 40.64 0))
    (property "Footprint" "" (id 2) (at 38.1 40.64 0)
      (effects (font (size 1.27 1.27)) hide)
    )
    (property "Datasheet" "~" (id 3) (at 38.1 40.64 0)
      (effects (font (size 1.27 1.27)) hide)
    )
    (pin "1" (uuid 41780c25-f352-4a6b-98f4-19aa149122ac))
    (pin "2" (uuid c221a856-5f47-4181-a6ac-03f66ac8fa43))
  )

  (symbol (lib_id "power:GNDD") (at 220.98 86.36 0) (unit 1)
    (in_bom yes) (on_board yes) (fields_autoplaced)
    (uuid 9c92ad07-1b72-483e-a6f2-e55673218be5)
    (property "Reference" "#PWR07" (id 0) (at 220.98 92.71 0)
      (effects (font (size 1.27 1.27)) hide)
    )
    (property "Value" "GNDD" (id 1) (at 220.98 91.44 0))
    (property "Footprint" "" (id 2) (at 220.98 86.36 0)
      (effects (font (size 1.27 1.27)) hide)
    )
    (property "Datasheet" "" (id 3) (at 220.98 86.36 0)
      (effects (font (size 1.27 1.27)) hide)
    )
    (pin "1" (uuid 088f3d3a-6b24-4274-86d7-7d42bc486cd7))
  )

  (symbol (lib_id "power:GNDD") (at 66.04 125.73 0) (unit 1)
    (in_bom yes) (on_board yes) (fields_autoplaced)
    (uuid 9ea8c450-a70c-46d7-8992-b65111b2cc26)
    (property "Reference" "#PWR03" (id 0) (at 66.04 132.08 0)
      (effects (font (size 1.27 1.27)) hide)
    )
    (property "Value" "GNDD" (id 1) (at 66.04 130.81 0))
    (property "Footprint" "" (id 2) (at 66.04 125.73 0)
      (effects (font (size 1.27 1.27)) hide)
    )
    (property "Datasheet" "" (id 3) (at 66.04 125.73 0)
      (effects (font (size 1.27 1.27)) hide)
    )
    (pin "1" (uuid 32d46ae4-2a49-4fd7-aa5e-ed2c2e04f741))
  )

  (symbol (lib_id "Regulator_Linear:LM7805_TO220") (at 66.04 45.72 0) (unit 1)
    (in_bom yes) (on_board yes)
    (uuid a744f6a5-7a1c-42cc-b581-129940dd6374)
    (property "Reference" "U3" (id 0) (at 72.39 48.26 0))
    (property "Value" "LM7805_TO220" (id 1) (at 66.04 41.8846 0))
    (property "Footprint" "Package_TO_SOT_THT:TO-220-3_Vertical" (id 2) (at 66.04 40.005 0)
      (effects (font (size 1.27 1.27) italic) hide)
    )
    (property "Datasheet" "https://www.onsemi.cn/PowerSolutions/document/MC7800-D.PDF" (id 3) (at 66.04 46.99 0)
      (effects (font (size 1.27 1.27)) hide)
    )
    (pin "1" (uuid ca208e21-7cda-4735-a780-998eeace179d))
    (pin "2" (uuid 05300bed-15d6-4f38-8c93-9dd81f4fd925))
    (pin "3" (uuid 90744f55-f949-4c50-997e-76ae4f2d63f6))
  )

  (symbol (lib_id "Device:R") (at 55.88 80.01 0) (unit 1)
    (in_bom yes) (on_board yes) (fields_autoplaced)
    (uuid a99a4b65-3ee5-414c-9141-24e3e90f6eaf)
    (property "Reference" "R2" (id 0) (at 58.42 78.7399 0)
      (effects (font (size 1.27 1.27)) (justify left))
    )
    (property "Value" "10k" (id 1) (at 58.42 81.2799 0)
      (effects (font (size 1.27 1.27)) (justify left))
    )
    (property "Footprint" "" (id 2) (at 54.102 80.01 90)
      (effects (font (size 1.27 1.27)) hide)
    )
    (property "Datasheet" "~" (id 3) (at 55.88 80.01 0)
      (effects (font (size 1.27 1.27)) hide)
    )
    (pin "1" (uuid df4faae0-a661-43cb-8983-4f298ea151aa))
    (pin "2" (uuid 8cb05abe-695c-4386-9eaa-0b682bf521f6))
  )

  (symbol (lib_id "power:GNDD") (at 43.18 110.49 0) (unit 1)
    (in_bom yes) (on_board yes) (fields_autoplaced)
    (uuid ae563f6b-9b7c-41b9-ba94-2fb377c14d08)
    (property "Reference" "#PWR01" (id 0) (at 43.18 116.84 0)
      (effects (font (size 1.27 1.27)) hide)
    )
    (property "Value" "GNDD" (id 1) (at 43.18 115.57 0))
    (property "Footprint" "" (id 2) (at 43.18 110.49 0)
      (effects (font (size 1.27 1.27)) hide)
    )
    (property "Datasheet" "" (id 3) (at 43.18 110.49 0)
      (effects (font (size 1.27 1.27)) hide)
    )
    (pin "1" (uuid 4c338e92-5e1a-482b-a4bf-3b01138a2316))
  )

  (symbol (lib_id "Device:C_Polarized") (at 80.01 49.53 0) (unit 1)
    (in_bom yes) (on_board yes) (fields_autoplaced)
    (uuid b1c38525-1b5e-492e-8d7c-fa6614170a0b)
    (property "Reference" "C2" (id 0) (at 83.82 47.3709 0)
      (effects (font (size 1.27 1.27)) (justify left))
    )
    (property "Value" "220uF" (id 1) (at 83.82 49.9109 0)
      (effects (font (size 1.27 1.27)) (justify left))
    )
    (property "Footprint" "" (id 2) (at 80.9752 53.34 0)
      (effects (font (size 1.27 1.27)) hide)
    )
    (property "Datasheet" "~" (id 3) (at 80.01 49.53 0)
      (effects (font (size 1.27 1.27)) hide)
    )
    (pin "1" (uuid cdb0a78a-430c-4c00-a2de-4d4f223f506c))
    (pin "2" (uuid 9e544b5d-a70d-46dc-b3f3-497433c2617a))
  )

  (symbol (lib_id "Device:R") (at 66.04 80.01 0) (unit 1)
    (in_bom yes) (on_board yes) (fields_autoplaced)
    (uuid b6821e7c-a48e-4c93-854c-c42a93cb4e80)
    (property "Reference" "R3" (id 0) (at 68.58 78.7399 0)
      (effects (font (size 1.27 1.27)) (justify left))
    )
    (property "Value" "10k" (id 1) (at 68.58 81.2799 0)
      (effects (font (size 1.27 1.27)) (justify left))
    )
    (property "Footprint" "" (id 2) (at 64.262 80.01 90)
      (effects (font (size 1.27 1.27)) hide)
    )
    (property "Datasheet" "~" (id 3) (at 66.04 80.01 0)
      (effects (font (size 1.27 1.27)) hide)
    )
    (pin "1" (uuid bd3b323b-4e2a-41bc-a6fd-fea50501ecb8))
    (pin "2" (uuid 23d225c0-c137-47e8-858c-53e14f564b06))
  )

  (symbol (lib_id "Diode:1N4148") (at 87.63 109.22 90) (unit 1)
    (in_bom yes) (on_board yes) (fields_autoplaced)
    (uuid b7e6a5fa-d066-47de-af31-3e680857aedc)
    (property "Reference" "D1" (id 0) (at 85.09 107.9499 90)
      (effects (font (size 1.27 1.27)) (justify left))
    )
    (property "Value" "1N4148" (id 1) (at 85.09 110.4899 90)
      (effects (font (size 1.27 1.27)) (justify left))
    )
    (property "Footprint" "Diode_THT:D_DO-35_SOD27_P7.62mm_Horizontal" (id 2) (at 92.075 109.22 0)
      (effects (font (size 1.27 1.27)) hide)
    )
    (property "Datasheet" "https://assets.nexperia.com/documents/data-sheet/1N4148_1N4448.pdf" (id 3) (at 87.63 109.22 0)
      (effects (font (size 1.27 1.27)) hide)
    )
    (pin "1" (uuid 302d0f4a-10dd-45cc-be9f-6b14939a180e))
    (pin "2" (uuid 062a8c55-6ae9-423c-9c42-02725b909d81))
  )

  (symbol (lib_id "Device:Battery_Cell") (at 25.4 50.8 0) (unit 1)
    (in_bom yes) (on_board yes) (fields_autoplaced)
    (uuid c81df68c-b43c-451d-8905-57ada255ef46)
    (property "Reference" "BT1" (id 0) (at 29.21 47.4979 0)
      (effects (font (size 1.27 1.27)) (justify left))
    )
    (property "Value" "6V, 1100mAh" (id 1) (at 29.21 50.0379 0)
      (effects (font (size 1.27 1.27)) (justify left))
    )
    (property "Footprint" "" (id 2) (at 25.4 49.276 90)
      (effects (font (size 1.27 1.27)) hide)
    )
    (property "Datasheet" "~" (id 3) (at 25.4 49.276 90)
      (effects (font (size 1.27 1.27)) hide)
    )
    (pin "1" (uuid d8b5e06e-9317-4423-8c05-b67d624a0ffa))
    (pin "2" (uuid ad037229-078a-4b6a-a8a5-ac659e9545d8))
  )

  (symbol (lib_id "Display_Character:RC1602A-GHW-ESX") (at 220.98 66.04 0) (unit 1)
    (in_bom yes) (on_board yes)
    (uuid dd8809f7-38ea-4cf1-9842-e4ceff109ebf)
    (property "Reference" "U2" (id 0) (at 222.9994 44.45 0)
      (effects (font (size 1.27 1.27)) (justify left))
    )
    (property "Value" "RC1602A-GHW-ESX" (id 1) (at 210.82 41.91 0)
      (effects (font (size 1.27 1.27)) (justify left))
    )
    (property "Footprint" "Display:RC1602A" (id 2) (at 220.98 88.9 0)
      (effects (font (size 1.27 1.27) italic) hide)
    )
    (property "Datasheet" "http://www.raystar-optronics.com/down.php?ProID=18" (id 3) (at 208.28 48.26 0)
      (effects (font (size 1.27 1.27)) hide)
    )
    (pin "1" (uuid 852e575a-0b58-4afa-b88f-8ef4eefc6429))
    (pin "10" (uuid 3dabf4d2-7f40-4809-8568-f795441d3a3a))
    (pin "11" (uuid 50a5e74a-ea99-4a0c-92fc-ecc66fc08020))
    (pin "12" (uuid eb72b4b7-3d07-4f28-a6df-eaaa582db90b))
    (pin "13" (uuid b2ada460-d477-4737-a095-e90e00dca214))
    (pin "14" (uuid 703d80e2-3d87-4254-9965-6de1b155dd73))
    (pin "15" (uuid 3675f9a0-6c8c-489e-8b0b-f77a939f0289))
    (pin "16" (uuid d4dc1cb7-7c72-4620-b6aa-11ce3ae159c3))
    (pin "2" (uuid 37f894ad-9b74-44e9-8ed6-3611b590cd87))
    (pin "3" (uuid 2fa4266a-f6f7-4543-919e-2dd05feef2f4))
    (pin "4" (uuid e16593a5-2b91-4df3-85f3-a80f0b622cae))
    (pin "5" (uuid 38d02dc5-8d3f-4466-9380-20b3fcd0d3d6))
    (pin "6" (uuid 43cb9305-56d8-4335-afce-7f7cd99f27c6))
    (pin "7" (uuid 268314db-ba22-4006-9d68-f9a2e93751fc))
    (pin "8" (uuid e18a9faa-e60f-4c98-92d6-d2d34935309d))
    (pin "9" (uuid bfe42f6c-8767-41fb-96df-f1fededb3fdc))
    (pin "A1" (uuid 23552b3d-5104-41e3-bfa9-1b287cc93043))
    (pin "K1" (uuid 74808a93-7ea0-4d3e-b639-ea97d8eb3909))
  )

  (symbol (lib_id "Connector:DB9_Male") (at 130.81 153.67 90) (mirror x) (unit 1)
    (in_bom yes) (on_board yes) (fields_autoplaced)
    (uuid e4f3c239-70c2-4b06-b5e8-6e9cd43560ae)
    (property "Reference" "J1" (id 0) (at 130.81 160.02 90))
    (property "Value" "DB9_Male (View Backside)" (id 1) (at 130.81 162.56 90))
    (property "Footprint" "" (id 2) (at 130.81 153.67 0)
      (effects (font (size 1.27 1.27)) hide)
    )
    (property "Datasheet" " ~" (id 3) (at 130.81 153.67 0)
      (effects (font (size 1.27 1.27)) hide)
    )
    (pin "1" (uuid b663dbee-a9fe-4689-b3fe-5537f2ed6d86))
    (pin "2" (uuid a560e7c3-ad6b-437d-92e2-5335544fa4e2))
    (pin "3" (uuid 403c1255-d897-49fb-9406-2f98c5b2b301))
    (pin "4" (uuid fb9f397b-44d0-4ffb-af9a-bdd1d721eff9))
    (pin "5" (uuid a50bb207-7181-4786-8a2e-631a31c412e2))
    (pin "6" (uuid 8d4c6b97-6266-48c7-8ec8-9e7dd6a83ed4))
    (pin "7" (uuid 0bf7f47c-067d-464d-a42f-e50324191323))
    (pin "8" (uuid 9723090b-d0a5-4143-bcc7-a6562b621812))
    (pin "9" (uuid 8d039a41-b1c9-48a6-9f44-ee5b1f13b5b5))
  )

  (symbol (lib_id "power:GNDD") (at 125.73 146.05 180) (unit 1)
    (in_bom yes) (on_board yes) (fields_autoplaced)
    (uuid fe082b80-3961-4aab-9c76-9d61ef6a0fd1)
    (property "Reference" "#PWR05" (id 0) (at 125.73 139.7 0)
      (effects (font (size 1.27 1.27)) hide)
    )
    (property "Value" "GNDD" (id 1) (at 125.73 140.97 0))
    (property "Footprint" "" (id 2) (at 125.73 146.05 0)
      (effects (font (size 1.27 1.27)) hide)
    )
    (property "Datasheet" "" (id 3) (at 125.73 146.05 0)
      (effects (font (size 1.27 1.27)) hide)
    )
    (pin "1" (uuid 44fd73ad-9ed4-4ab7-b3c6-9d6b67d1e992))
  )

  (sheet_instances
    (path "/" (page "1"))
  )

  (symbol_instances
    (path "/ae563f6b-9b7c-41b9-ba94-2fb377c14d08"
      (reference "#PWR01") (unit 1) (value "GNDD") (footprint "")
    )
    (path "/4f46582b-025d-4645-83a5-46273e54931b"
      (reference "#PWR02") (unit 1) (value "GNDD") (footprint "")
    )
    (path "/9ea8c450-a70c-46d7-8992-b65111b2cc26"
      (reference "#PWR03") (unit 1) (value "GNDD") (footprint "")
    )
    (path "/33aa7f7e-3acc-469d-bd18-e67989b2835b"
      (reference "#PWR04") (unit 1) (value "GNDD") (footprint "")
    )
    (path "/fe082b80-3961-4aab-9c76-9d61ef6a0fd1"
      (reference "#PWR05") (unit 1) (value "GNDD") (footprint "")
    )
    (path "/0290e27f-849f-4dba-bb3b-acd45754bc80"
      (reference "#PWR06") (unit 1) (value "GNDD") (footprint "")
    )
    (path "/9c92ad07-1b72-483e-a6f2-e55673218be5"
      (reference "#PWR07") (unit 1) (value "GNDD") (footprint "")
    )
    (path "/770dcbc6-9ee4-4124-89d1-5b12c3884250"
      (reference "#PWR08") (unit 1) (value "GNDD") (footprint "")
    )
    (path "/40c10d96-48bc-4541-a83f-97298d7933cf"
      (reference "#PWR09") (unit 1) (value "GNDD") (footprint "")
    )
    (path "/c81df68c-b43c-451d-8905-57ada255ef46"
      (reference "BT1") (unit 1) (value "6V, 1100mAh") (footprint "")
    )
    (path "/945f68ab-a1eb-4de1-8d72-0fbdc4f76abf"
      (reference "C1") (unit 1) (value "220uF") (footprint "")
    )
    (path "/b1c38525-1b5e-492e-8d7c-fa6614170a0b"
      (reference "C2") (unit 1) (value "220uF") (footprint "")
    )
    (path "/45675d12-af70-41cf-92c7-a89ebe1ac3db"
      (reference "C3") (unit 1) (value "100mF") (footprint "")
    )
    (path "/b7e6a5fa-d066-47de-af31-3e680857aedc"
      (reference "D1") (unit 1) (value "1N4148") (footprint "Diode_THT:D_DO-35_SOD27_P7.62mm_Horizontal")
    )
    (path "/e4f3c239-70c2-4b06-b5e8-6e9cd43560ae"
      (reference "J1") (unit 1) (value "DB9_Male (View Backside)") (footprint "")
    )
    (path "/293f6823-22a6-4dff-9f94-4ef80a5d0d66"
      (reference "R1") (unit 1) (value "10k") (footprint "")
    )
    (path "/a99a4b65-3ee5-414c-9141-24e3e90f6eaf"
      (reference "R2") (unit 1) (value "10k") (footprint "")
    )
    (path "/b6821e7c-a48e-4c93-854c-c42a93cb4e80"
      (reference "R3") (unit 1) (value "10k") (footprint "")
    )
    (path "/867c7839-281c-4a37-9edc-adc9bf71b620"
      (reference "R4") (unit 1) (value "10k") (footprint "")
    )
    (path "/88192a42-e036-4e47-bc97-d352e94e21d6"
      (reference "R5") (unit 1) (value "33R") (footprint "")
    )
    (path "/60c76a65-c20e-4bfd-b608-7dd711e04653"
      (reference "R6") (unit 1) (value "10k") (footprint "")
    )
    (path "/4c4956b5-2a27-4bf6-82e4-670298293e41"
      (reference "RV1") (unit 1) (value "R_Potentiometer") (footprint "")
    )
    (path "/855ef815-9b5f-4cf2-bf91-b6b8b6c4800e"
      (reference "SW1") (unit 1) (value "Left") (footprint "")
    )
    (path "/0b3b95cd-d5f3-4646-9174-604cf6915773"
      (reference "SW2") (unit 1) (value "Down") (footprint "")
    )
    (path "/93e001c6-4b39-49f3-8d8a-c3feec1dbe95"
      (reference "SW3") (unit 1) (value "Up") (footprint "")
    )
    (path "/5daf339a-fc27-49c7-8bdf-bc5cedefbd4a"
      (reference "SW4") (unit 1) (value "Right") (footprint "")
    )
    (path "/6e642c27-6391-4341-920a-ceae4cc96f0c"
      (reference "SW5") (unit 1) (value "Backlight ON/OFF") (footprint "")
    )
    (path "/979e014e-da96-4c24-b1a7-28bafb61ed35"
      (reference "SW6") (unit 1) (value "ON/OFF") (footprint "")
    )
    (path "/60b4685f-7a43-440d-ade7-517da905e4a4"
      (reference "U1") (unit 1) (value "PIC16F88-IP") (footprint "")
    )
    (path "/dd8809f7-38ea-4cf1-9842-e4ceff109ebf"
      (reference "U2") (unit 1) (value "RC1602A-GHW-ESX") (footprint "Display:RC1602A")
    )
    (path "/a744f6a5-7a1c-42cc-b581-129940dd6374"
      (reference "U3") (unit 1) (value "LM7805_TO220") (footprint "Package_TO_SOT_THT:TO-220-3_Vertical")
    )
  )
)
