interrupt
	Reset
	ProgMode
		Mul_8x8_U
		EEP_Write
		Usart_Read
		Usart_Data_Ready
	ReadMode
		EEP_Read
		Usart_Write
	Puncher
		EEP_Write
		Usart_Write
		Usart_Read
		Usart_Data_Ready
	Usart_Read
main
	Div_16x16_S
		Div_16x16_S_L
	Div_16x16_U
	Mul_16x16_S
	Mul_8x8_U
	Div_8x8_U
	Mul_16x16_U
	GlobalIniFox_Nr1
	ConvertToMorse
	Send_Word
		Mul_16x16_S
		CW_Keying
			PWM_Change_Duty
				Mul_16x16_S
		VDelay_ms
			Mul_32x32_U
	Type
		Mul_16x16_U
		Div_16x16_U
	VDelay_ms
		Mul_32x32_U
	CW_Keying
		PWM_Change_Duty
			Mul_16x16_S
	init
		PWM_Init
		Usart_Init
		PWM_Change_Duty
			Mul_16x16_S
		PWM_Start
